<?xml version="1.0" encoding="UTF-8"?>
<svg width="32px" height="10px" viewBox="0 0 32 10" version="1.1" xmlns="http://www.w3.org/2000/svg" xmlns:xlink="http://www.w3.org/1999/xlink">
    <!-- Generator: Sketch 52.2 (67145) - http://www.bohemiancoding.com/sketch -->
    <title>Line</title>
    <desc>Created with Sketch.</desc>
    <g id="Symbols" stroke="none" stroke-width="1" fill="none" fill-rule="evenodd" stroke-dasharray="3,3" stroke-linecap="square">
        <g id="Subnav-timeline" transform="translate(-960.000000, -63.000000)" stroke="#009FE3">
            <g id="lines" transform="translate(288.000000, 24.000000)">
                <path d="M672,40 C677.333333,45.3333333 682.666667,48 688,48 C693.333333,48 698.666667,45.3333333 704,40" id="Line"></path>
            </g>
        </g>
    </g>
</svg>