<?xml version="1.0" encoding="UTF-8"?>
<svg width="64px" height="112px" viewBox="0 0 64 112" version="1.1" xmlns="http://www.w3.org/2000/svg" xmlns:xlink="http://www.w3.org/1999/xlink">
    <!-- Generator: Sketch 52.2 (67145) - http://www.bohemiancoding.com/sketch -->
    <title>Live chat</title>
    <desc>Created with Sketch.</desc>
    <defs>
        <rect id="path-1" x="0" y="0" width="56" height="104" rx="28"></rect>
        <filter x="-12.5%" y="-4.8%" width="125.0%" height="113.5%" filterUnits="objectBoundingBox" id="filter-2">
            <feOffset dx="0" dy="2" in="SourceAlpha" result="shadowOffsetOuter1"></feOffset>
            <feGaussianBlur stdDeviation="2" in="shadowOffsetOuter1" result="shadowBlurOuter1"></feGaussianBlur>
            <feColorMatrix values="0 0 0 0 0   0 0 0 0 0   0 0 0 0 0  0 0 0 0.25 0" type="matrix" in="shadowBlurOuter1"></feColorMatrix>
        </filter>
    </defs>
    <g id="Symbols" stroke="none" stroke-width="1" fill="none" fill-rule="evenodd">
        <g id="Live-chat" transform="translate(4.000000, 2.000000)">
            <g>
                <g>
                    <g id="Rectangle-11">
                        <use fill="black" fill-opacity="1" filter="url(#filter-2)" xlink:href="#path-1"></use>
                        <use fill="#009FE3" fill-rule="evenodd" xlink:href="#path-1"></use>
                    </g>
                    <g id="icon-live-chat" transform="translate(16.000000, 20.000000)">
                        <path d="M5.28815734,21.194247 L5.29813805,21.209044 L0.364815961,22.2019964 L2.85836155,18.4174816 C1.6814583,16.561493 1,14.3603281 1,12 C1,5.372583 6.372583,0 13,0 C19.627417,0 25,5.372583 25,12 C25,18.627417 19.627417,24 13,24 C10.0636904,24 7.37370177,22.9453746 5.28815734,21.194247 Z" id="Combined-Shape" fill="#FFFFFF"></path>
                        <path d="M14,11.9998494 C14,12.5523006 13.5520837,13 12.9999624,13 C12.4476904,13 12,12.5523006 12,11.9998494 C12,11.4476994 12.4476904,11 12.9999624,11 C13.5520837,11 14,11.4476994 14,11.9998494 Z" id="Fill-3" fill="#009FE3"></path>
                        <path d="M18,11.9998494 C18,12.5523006 17.5523006,13 17.0001506,13 C16.4476994,13 16,12.5523006 16,11.9998494 C16,11.4476994 16.4476994,11 17.0001506,11 C17.5523006,11 18,11.4476994 18,11.9998494 Z" id="Fill-4" fill="#009FE3"></path>
                        <path d="M10,11.9998494 C10,12.5523006 9.55236804,13 9,13 C8.44763196,13 8,12.5523006 8,11.9998494 C8,11.4476994 8.44763196,11 9,11 C9.55236804,11 10,11.4476994 10,11.9998494 Z" id="Fill-5" fill="#009FE3"></path>
                    </g>
                    <path d="M16.456,65 L16.456,56.6 L17.932,56.6 L17.932,63.656 L22.348,63.656 L22.348,65 L16.456,65 Z M25.3,57.692 L23.74,57.692 L23.74,56.312 L25.3,56.312 L25.3,57.692 Z M25.252,65 L23.8,65 L23.8,58.664 L25.252,58.664 L25.252,65 Z M29.812,63.32 L31.528,58.664 L33.052,58.664 L30.46,65.048 L29.152,65.048 L26.548,58.664 L28.108,58.664 L29.812,63.32 Z M35.392,62.348 C35.4720004,62.8520025 35.6759984,63.2459986 36.004,63.53 C36.3320016,63.8140014 36.7359976,63.956 37.216,63.956 C37.8400031,63.956 38.4119974,63.7040025 38.932,63.2 L39.784,63.956 C39.1279967,64.748004 38.2640054,65.144 37.192,65.144 C36.2639954,65.144 35.4900031,64.8360031 34.87,64.22 C34.2499969,63.6039969 33.94,62.8120048 33.94,61.844 C33.94,60.9159954 34.2319971,60.1320032 34.816,59.492 C35.4000029,58.8519968 36.1399955,58.532 37.036,58.532 C38.0040048,58.532 38.7519974,58.8579967 39.28,59.51 C39.8080026,60.1620033 40.072,60.9759951 40.072,61.952 C40.072,62.0240004 40.0640001,62.155999 40.048,62.348 L35.392,62.348 Z M35.38,61.388 L38.632,61.388 C38.5839998,60.8999976 38.4200014,60.5000016 38.14,60.188 C37.8599986,59.8759984 37.4880023,59.72 37.024,59.72 C36.5839978,59.72 36.2160015,59.8739985 35.92,60.182 C35.6239985,60.4900015 35.4440003,60.8919975 35.38,61.388 Z M21.304,79.956 C20.9599983,80.3400019 20.586002,80.633999 20.182,80.838 C19.777998,81.042001 19.2880029,81.144 18.712,81.144 C17.7759953,81.144 16.9960031,80.8240032 16.372,80.184 C15.7479969,79.5439968 15.436,78.7680046 15.436,77.856 C15.436,76.9359954 15.7499969,76.1520032 16.378,75.504 C17.0060031,74.8559968 17.7879953,74.532 18.724,74.532 C19.7480051,74.532 20.5919967,74.8959964 21.256,75.624 L20.356,76.596 C19.8519975,76.0679974 19.304003,75.804 18.712,75.804 C18.1919974,75.804 17.7580017,75.999998 17.41,76.392 C17.0619983,76.784002 16.888,77.2639972 16.888,77.832 C16.888,78.4080029 17.0659982,78.893998 17.422,79.29 C17.7780018,79.686002 18.2319972,79.884 18.784,79.884 C19.3680029,79.884 19.9159974,79.6200026 20.428,79.092 L21.304,79.956 Z M24.088,77.424 L24.088,81 L22.636,81 L22.636,72.24 L24.088,72.24 L24.088,75.648 C24.5920025,74.9039963 25.2519959,74.532 26.068,74.532 C26.7720035,74.532 27.323998,74.7519978 27.724,75.192 C28.124002,75.6320022 28.324,76.2239963 28.324,76.968 L28.324,81 L26.872,81 L26.872,77.4 C26.872,76.9039975 26.7540012,76.5220013 26.518,76.254 C26.2819988,75.9859987 25.9480022,75.852 25.516,75.852 C25.0919979,75.852 24.7480013,75.9919986 24.484,76.272 C24.2199987,76.5520014 24.088,76.9359976 24.088,77.424 Z M35.392,81 L33.952,81 L33.952,80.22 C33.4399974,80.828003 32.7560043,81.132 31.9,81.132 C31.2679968,81.132 30.7340022,80.9580017 30.298,80.61 C29.8619978,80.2619983 29.644,79.784003 29.644,79.176 L29.644,79.152 C29.644,78.4879967 29.8799976,77.9820017 30.352,77.634 C30.8240024,77.2859983 31.4439962,77.112 32.212,77.112 C32.8280031,77.112 33.4119972,77.1999991 33.964,77.376 L33.964,77.22 C33.964,76.7799978 33.8300013,76.4440012 33.562,76.212 C33.2939987,75.9799988 32.9080025,75.864 32.404,75.864 C31.8279971,75.864 31.2240032,75.9959987 30.592,76.26 L30.196,75.096 C30.9800039,74.7439982 31.7839959,74.568 32.608,74.568 C33.5280046,74.568 34.2219977,74.7999977 34.69,75.264 C35.1580023,75.7280023 35.392,76.3879957 35.392,77.244 L35.392,81 Z M33.988,78.708 L33.988,78.312 C33.5559978,78.1439992 33.0720027,78.06 32.536,78.06 C32.0799977,78.06 31.7240013,78.1499991 31.468,78.33 C31.2119987,78.5100009 31.084,78.7599984 31.084,79.08 L31.084,79.104 C31.084,79.3920014 31.1999988,79.6199992 31.432,79.788 C31.6640012,79.9560008 31.9559982,80.04 32.308,80.04 C32.7960024,80.04 33.1979984,79.9160012 33.514,79.668 C33.8300016,79.4199988 33.988,79.100002 33.988,78.708 Z M38.872,75.912 L38.872,79.02 C38.872,79.5480026 39.1319974,79.812 39.652,79.812 C39.9640016,79.812 40.2639986,79.7400007 40.552,79.596 L40.552,80.784 C40.1679981,81.0000011 39.7320024,81.108 39.244,81.108 C38.0279939,81.108 37.42,80.4880062 37.42,79.248 L37.42,75.912 L36.616,75.912 L36.616,74.664 L37.42,74.664 L37.42,72.924 L38.872,72.924 L38.872,74.664 L40.576,74.664 L40.576,75.912 L38.872,75.912 Z" fill="#FFFFFF"></path>
                </g>
            </g>
        </g>
    </g>
</svg>