<?xml version="1.0" encoding="UTF-8"?>
<svg width="25px" height="24px" viewBox="0 0 25 24" version="1.1" xmlns="http://www.w3.org/2000/svg" xmlns:xlink="http://www.w3.org/1999/xlink">
    <!-- Generator: Sketch 52.2 (67145) - http://www.bohemiancoding.com/sketch -->
    <title>icon live chat</title>
    <desc>Created with Sketch.</desc>
    <g id="Symbols" stroke="none" stroke-width="1" fill="none" fill-rule="evenodd">
        <g id="Live-chat" transform="translate(-16.000000, -20.000000)">
            <g id="icon-live-chat">
                <g>
                    <g transform="translate(16.000000, 20.000000)">
                        <path d="M5.28815734,21.194247 L5.29813805,21.209044 L0.364815961,22.2019964 L2.85836155,18.4174816 C1.6814583,16.561493 1,14.3603281 1,12 C1,5.372583 6.372583,0 13,0 C19.627417,0 25,5.372583 25,12 C25,18.627417 19.627417,24 13,24 C10.0636904,24 7.37370177,22.9453746 5.28815734,21.194247 Z" id="Combined-Shape" fill="#FFFFFF"></path>
                        <path d="M14,11.9998494 C14,12.5523006 13.5520837,13 12.9999624,13 C12.4476904,13 12,12.5523006 12,11.9998494 C12,11.4476994 12.4476904,11 12.9999624,11 C13.5520837,11 14,11.4476994 14,11.9998494 Z" id="Fill-3" fill="#009FE3"></path>
                        <path d="M18,11.9998494 C18,12.5523006 17.5523006,13 17.0001506,13 C16.4476994,13 16,12.5523006 16,11.9998494 C16,11.4476994 16.4476994,11 17.0001506,11 C17.5523006,11 18,11.4476994 18,11.9998494 Z" id="Fill-4" fill="#009FE3"></path>
                        <path d="M10,11.9998494 C10,12.5523006 9.55236804,13 9,13 C8.44763196,13 8,12.5523006 8,11.9998494 C8,11.4476994 8.44763196,11 9,11 C9.55236804,11 10,11.4476994 10,11.9998494 Z" id="Fill-5" fill="#009FE3"></path>
                    </g>
                </g>
            </g>
        </g>
    </g>
</svg>