<?xml version="1.0" encoding="UTF-8"?>
<svg width="1440px" height="278px" viewBox="0 0 1440 278" version="1.1" xmlns="http://www.w3.org/2000/svg" xmlns:xlink="http://www.w3.org/1999/xlink">
    <!-- Generator: Sketch 52.2 (67145) - http://www.bohemiancoding.com/sketch -->
    <title>Combined Shape</title>
    <desc>Created with Sketch.</desc>
    <g id="Aptamil-Desktop-Design" stroke="none" stroke-width="1" fill="none" fill-rule="evenodd">
        <g id="D.-Topic-Navigation" transform="translate(0.000000, -711.000000)" fill="#E1F1FC">
            <path d="M1440,906 L1440,907 C1173.33333,961.666667 933.333333,989 720,989 C506.666667,989 266.666667,961.666667 3.96528258e-11,907 L3.86656913e-11,906 L-6.60010827e-11,793 C266.666667,738.333333 506.666667,711 720,711 C933.333333,711 1173.33333,738.333333 1440,793 L1440,906 Z" id="Combined-Shape"></path>
        </g>
    </g>
</svg>