<?xml version="1.0" encoding="UTF-8"?>
<svg width="1440px" height="82px" viewBox="0 0 1440 82" version="1.1" xmlns="http://www.w3.org/2000/svg" xmlns:xlink="http://www.w3.org/1999/xlink">
    <!-- Generator: Sketch 52.2 (67145) - http://www.bohemiancoding.com/sketch -->
    <title>Rectangle 2 Copy 2</title>
    <desc>Created with Sketch.</desc>
    <g id="Page-1" stroke="none" stroke-width="1" fill="none" fill-rule="evenodd">
        <path d="M-1.13686838e-13,82 C266.666667,27.3333333 506.666667,4.89087937e-13 720,4.54747351e-13 C933.333333,4.2548777e-13 1173.33333,27.3333333 1440,82 L-1.13686838e-13,82 Z" id="Rectangle-2-Copy-2" fill="#E1F1FC" transform="translate(720.000000, 41.000000) rotate(-360.000000) translate(-720.000000, -41.000000) "></path>
    </g>
</svg>