<?xml version="1.0" encoding="UTF-8"?>
<svg width="20px" height="16px" viewBox="0 0 20 16" version="1.1" xmlns="http://www.w3.org/2000/svg" xmlns:xlink="http://www.w3.org/1999/xlink">
    <!-- Generator: Sketch 52.2 (67145) - http://www.bohemiancoding.com/sketch -->
    <title>Shape</title>
    <desc>Created with Sketch.</desc>
    <g id="Symbols" stroke="none" stroke-width="1" fill="none" fill-rule="evenodd">
        <g id="Nav-mobile" transform="translate(-20.000000, -22.000000)" fill="#17479E" fill-rule="nonzero">
            <path d="M21.3953488,22 C20.625,22 20,22.6210609 20,23.3865546 C20,24.1520483 20.625,24.7731092 21.3953488,24.7731092 L38.6046512,24.7731092 C39.375,24.7731092 40,24.1520483 40,23.3865546 C40,22.6210609 39.375,22 38.6046512,22 L21.3953488,22 Z M21.3953488,28.4705882 C20.625,28.4705882 20,29.0916492 20,29.8571429 C20,30.6226366 20.625,31.2436975 21.3953488,31.2436975 L38.6046512,31.2436975 C39.375,31.2436975 40,30.6226366 40,29.8571429 C40,29.0916492 39.375,28.4705882 38.6046512,28.4705882 L21.3953488,28.4705882 Z M21.3953488,34.9411765 C20.625,34.9411765 20,35.5622374 20,36.3277311 C20,37.0932248 20.625,37.7142857 21.3953488,37.7142857 L38.6046512,37.7142857 C39.375,37.7142857 40,37.0932248 40,36.3277311 C40,35.5622374 39.375,34.9411765 38.6046512,34.9411765 L21.3953488,34.9411765 Z" id="Shape"></path>
        </g>
    </g>
</svg>