<?xml version="1.0" encoding="UTF-8"?>
<svg width="28px" height="28px" viewBox="0 0 28 28" version="1.1" xmlns="http://www.w3.org/2000/svg" xmlns:xlink="http://www.w3.org/1999/xlink">
    <!-- Generator: Sketch 52.2 (67145) - http://www.bohemiancoding.com/sketch -->
    <title>cyanblue</title>
    <desc>Created with Sketch.</desc>
    <g id="Symbols" stroke="none" stroke-width="1" fill="none" fill-rule="evenodd">
        <g id="Careline" transform="translate(-523.000000, -18.000000)" fill="#FFFFFF">
            <g id="Image+Icons">
                <g transform="translate(322.000000, 0.000000)">
                    <g>
                        <g id="Icons" transform="translate(183.000000, 0.000000)">
                            <g id="Icon">
                                <g id="Icon/Mail" transform="translate(18.000000, 18.000000)">
                                    <g id="Color/cyanblue" transform="translate(-2.000000, -2.000000)">
                                        <rect id="cyanblue" x="0" y="0" width="32" height="32"></rect>
                                    </g>
                                </g>
                            </g>
                        </g>
                    </g>
                </g>
            </g>
        </g>
    </g>
</svg>