<svg width='68px' height='68px' xmlns="http://www.w3.org/2000/svg" viewBox="0 0 100 100" preserveAspectRatio="xMidYMid" class="uil-balls"><rect x="0" y="0" width="100" height="100" fill="none" class="bk"></rect><g transform="rotate(0 50 50)">
  <circle r="9" cx="22" cy="50">
    <animateTransform attributeName="transform" type="translate" begin="0s" repeatCount="indefinite" dur="1s" values="0 0;13.999999999999996 -24.24871130596428" keyTimes="0;1"/>
    <animate attributeName="fill" dur="1s" begin="0s" repeatCount="indefinite"  keyTimes="0;1" values="#00aae5;#5363e9"/>
  </circle>
</g><g transform="rotate(60 50 50)">
  <circle r="9" cx="22" cy="50">
    <animateTransform attributeName="transform" type="translate" begin="0s" repeatCount="indefinite" dur="1s" values="0 0;13.999999999999996 -24.24871130596428" keyTimes="0;1"/>
    <animate attributeName="fill" dur="1s" begin="0s" repeatCount="indefinite"  keyTimes="0;1" values="#5363e9;#00a7e0"/>
  </circle>
</g><g transform="rotate(120 50 50)">
  <circle r="9" cx="22" cy="50">
    <animateTransform attributeName="transform" type="translate" begin="0s" repeatCount="indefinite" dur="1s" values="0 0;13.999999999999996 -24.24871130596428" keyTimes="0;1"/>
    <animate attributeName="fill" dur="1s" begin="0s" repeatCount="indefinite"  keyTimes="0;1" values="#00a7e0;#00719e"/>
  </circle>
</g><g transform="rotate(180 50 50)">
  <circle r="9" cx="22" cy="50">
    <animateTransform attributeName="transform" type="translate" begin="0s" repeatCount="indefinite" dur="1s" values="0 0;13.999999999999996 -24.24871130596428" keyTimes="0;1"/>
    <animate attributeName="fill" dur="1s" begin="0s" repeatCount="indefinite"  keyTimes="0;1" values="#00719e;#00aae5"/>
  </circle>
</g><g transform="rotate(240 50 50)">
  <circle r="9" cx="22" cy="50">
    <animateTransform attributeName="transform" type="translate" begin="0s" repeatCount="indefinite" dur="1s" values="0 0;13.999999999999996 -24.24871130596428" keyTimes="0;1"/>
    <animate attributeName="fill" dur="1s" begin="0s" repeatCount="indefinite"  keyTimes="0;1" values="#00aae5;#5363e9"/>
  </circle>
</g><g transform="rotate(300 50 50)">
  <circle r="9" cx="22" cy="50">
    <animateTransform attributeName="transform" type="translate" begin="0s" repeatCount="indefinite" dur="1s" values="0 0;13.999999999999996 -24.24871130596428" keyTimes="0;1"/>
    <animate attributeName="fill" dur="1s" begin="0s" repeatCount="indefinite"  keyTimes="0;1" values="#5363e9;#00a7e0"/>
  </circle>
</g></svg>