<?xml version="1.0" encoding="utf-8"?>
<!-- Generator: Adobe Illustrator 16.0.0, SVG Export Plug-In . SVG Version: 6.00 Build 0)  -->
<!DOCTYPE svg PUBLIC "-//W3C//DTD SVG 1.1//EN" "http://www.w3.org/Graphics/SVG/1.1/DTD/svg11.dtd">
<svg version="1.1" xmlns="http://www.w3.org/2000/svg" xmlns:xlink="http://www.w3.org/1999/xlink" x="0px" y="0px" width="517.6px"
	 height="72.1px" viewBox="0 0 517.6 72.1" style="enable-background:new 0 0 517.6 72.1;" xml:space="preserve">
<style type="text/css">
<![CDATA[
	.st0{font-family:'BubbleBash';}
	.st1{fill:#58595B;}
	.st2{fill:#FFFFFF;}
	.st3{font-size:72;}
]]>
</style>
<font horiz-adv-x="2048">
<!-- Bubble Bash (C) (TattooWoo.com). 2016. All Rights Reserved -->
<!-- Copyright: Copyright 2016 Adobe System Incorporated. All rights reserved. -->
<font-face font-family="BubbleBash" units-per-em="2048" underline-position="-217" underline-thickness="150"/>
<missing-glyph horiz-adv-x="2717" d="M1358,1708C1413,1708 1468,1662 1523,1571C1572,1537 1596,1501 1596,1462l0,-28C1596,1411 1581,1383 1550,1352l0,-64C1581,1284 1596,1275 1596,1261C1559,1255 1541,1224 1541,1169l0,-81l-18,0l0,63C1500,1133 1479,1124 1459,1124l-19,0C1431,1124 1422,1133 1413,1151C1413,1157 1416,1160 1422,1160C1416,1185 1413,1206 1413,1225l-18,-10l0,19C1413,1277 1440,1305 1477,1316l55,-19l0,28l-64,9C1447,1334 1426,1325 1404,1306l-9,19C1425,1341 1440,1353 1440,1362l-18,0l-45,-10l-46,10C1324,1362 1315,1359 1303,1352C1279,1359 1258,1362 1240,1362C1232,1362 1201,1359 1148,1352C1148,1359 1145,1362 1139,1362l-9,-19l18,-9l-9,-18l0,-19C1185,1310 1212,1316 1221,1316C1276,1297 1303,1266 1303,1225l-18,9l0,-46l9,-46l-27,-18l-27,0C1185,1124 1157,1158 1157,1225l-9,0l0,-37C1148,1048 1185,978 1258,978C1258,967 1291,955 1358,941C1462,976 1514,1019 1514,1069l18,0C1532,1058 1523,1033 1505,996C1498,899 1495,842 1495,823C1623,797 1687,760 1687,713C1693,703 1696,688 1696,667l0,-155C1696,463 1699,400 1705,321C1693,293 1681,278 1669,275l-9,0l0,9l18,27l0,210C1664,521 1652,524 1642,530C1642,409 1560,348 1395,348l0,18C1473,378 1519,384 1532,384l0,9C1235,442 1052,467 984,467C984,435 975,417 957,412l-10,0l0,9l19,37C943,458 924,464 911,476l0,-9C911,458 920,421 938,357C903,357 879,497 865,777C879,893 913,951 966,951C960,1022 957,1074 957,1106l0,82C957,1442 1021,1603 1148,1672C1187,1690 1257,1702 1358,1708M1486,1362l0,-10l46,-9l0,19M1267,1352C1295,1341 1310,1329 1312,1316l0,-10l-9,0l-45,28C1204,1328 1170,1325 1157,1325l0,18C1167,1343 1204,1346 1267,1352M1103,1261l0,-36C1115,1225 1121,1231 1121,1243C1121,1255 1115,1261 1103,1261M1157,1261l9,-46l9,0l0,46M1532,1261C1526,1229 1523,1211 1523,1206l0,-9l9,0C1532,1202 1535,1220 1541,1252l0,9M1231,1252C1232,1240 1238,1234 1249,1234l9,18M1203,1197l0,-18C1209,1154 1227,1142 1258,1142l9,46l-18,9C1238,1191 1226,1188 1212,1188C1212,1194 1209,1197 1203,1197M1395,1206C1395,1197 1401,1184 1413,1169l0,-9C1404,1160 1392,1172 1377,1197M1468,1197l-9,-18l-19,9l-9,0C1439,1157 1448,1142 1459,1142l9,0C1477,1142 1486,1151 1495,1169l0,19C1489,1188 1480,1191 1468,1197M1340,1069l37,0C1377,1057 1371,1051 1358,1051l-18,0M1303,1032l9,0l19,-9C1342,1029 1354,1032 1368,1032C1376,1032 1385,1023 1395,1006C1395,997 1386,987 1368,978l-28,0C1331,979 1319,994 1303,1023M1221,969C1215,927 1212,899 1212,886C1257,864 1282,846 1285,832l0,-9C1236,859 1200,877 1175,877l0,-18C1175,846 1212,831 1285,814C1285,807 1303,791 1340,768C1386,780 1413,786 1422,786l-9,-18C1437,771 1449,780 1449,795l19,0C1527,777 1561,768 1568,768l0,18C1561,786 1528,792 1468,804l-82,0l0,19l73,0l0,9C1416,841 1395,874 1395,932l-18,-9l-19,0C1324,923 1278,938 1221,969M984,941C997,910 1022,889 1057,877l0,9C1048,923 1026,941 993,941M929,905l9,0C951,905 957,911 957,923l0,9C948,932 938,923 929,905M1368,877l9,0C1364,841 1352,823 1340,823C1328,823 1322,829 1322,841l0,9l18,-9C1349,865 1358,877 1368,877M1020,823l9,-46l-9,-45l28,-19l18,0l-9,45l0,37l18,0l-9,64M892,850l0,-46l9,0l0,46M1175,814l0,-10l28,0l0,-9l-9,-18l27,0l-9,18C1218,795 1221,798 1221,804C1215,804 1206,807 1194,814M1249,814l0,-10C1258,804 1270,798 1285,786l0,9l-27,19M883,777l0,-9C914,768 929,756 929,732l18,0C949,762 958,777 975,777C969,789 966,798 966,804l-9,0C941,786 916,777 883,777M1002,795l-9,-37l0,-17l9,0l10,45l0,9M1477,758l-9,-17C1474,741 1477,738 1477,732C1471,732 1468,729 1468,722l18,0C1486,740 1501,749 1532,749l0,9M1605,768l-9,-19l0,-63C1618,601 1636,558 1651,558l18,27C1657,585 1651,591 1651,604l18,0C1669,615 1663,621 1651,621l-9,0l9,-17l-9,0C1629,604 1623,610 1623,621l28,37C1645,670 1642,679 1642,686l18,9l18,-9l0,9C1666,744 1642,768 1605,768M1175,741C1175,654 1233,593 1349,558l0,82C1362,638 1368,632 1368,621l0,-63l72,0C1507,558 1541,591 1541,658C1547,681 1550,708 1550,741l-9,0C1476,686 1430,658 1404,658l0,9l-18,-9l-28,19C1358,664 1352,658 1340,658C1340,667 1331,677 1312,686l-27,-19C1261,683 1249,695 1249,704l-18,-9l-10,18C1228,713 1231,716 1231,722C1212,722 1203,728 1203,741C1209,741 1212,744 1212,749l-18,0M947,722l-9,-18l0,-9l9,0C960,695 966,701 966,713M892,713l0,-82C908,643 923,649 938,649l0,28l-9,18l-18,-9l-10,0l0,27M1413,713l0,-9C1415,692 1421,686 1431,686l0,9C1431,707 1425,713 1413,713M966,686l-9,-19l27,0C984,680 978,686 966,686M920,631C920,613 911,604 892,604C894,591 900,585 911,585l27,36M1038,631l0,-27C1045,604 1054,601 1066,595l0,36M1002,595l0,-10C1011,585 1023,579 1038,567l0,9C1032,588 1029,597 1029,604C1018,598 1009,595 1002,595M1660,549l0,-10C1672,539 1678,545 1678,558l0,9C1666,565 1660,559 1660,549M1012,558l0,-9C1040,549 1067,531 1094,494l-10,0C1078,494 1075,497 1075,503l-18,-9l-45,9l-28,0l0,-9l155,-27l0,9C1128,508 1104,535 1066,558l0,-9C1074,549 1089,534 1112,503l0,-9C1066,537 1035,558 1020,558M975,549l0,-10C987,539 1008,530 1038,512l10,0l0,9C1035,521 1014,530 984,549M938,476l9,0C960,476 966,482 966,494l-9,0C944,492 938,486 938,476M43,193C59,193 71,156 80,83l9,0C101,156 116,193 134,193C148,193 163,159 180,92l10,0C194,159 206,193 226,193l27,0C264,193 276,159 290,92l9,0C308,159 320,193 336,193l9,0C360,193 372,159 381,92l9,0C402,159 414,193 427,193l27,0C473,193 485,159 490,92C497,92 513,126 536,193l9,0C562,193 578,159 591,92l10,0C607,159 619,193 637,193l9,0l0,-19C630,77 612,28 591,28C576,28 564,61 555,128l-19,0C527,61 515,28 500,28C482,28 464,74 445,165l-9,0C422,74 407,28 390,28C370,28 355,65 345,138l-9,0C323,65 308,28 290,28C271,28 256,71 244,156C236,156 218,113 190,28l-10,0C167,28 151,61 134,128l-9,0C116,61 104,28 89,28l-9,0C68,28 50,80 25,184M719,193l101,0C832,191 838,185 838,174C838,162 820,156 783,156l0,-109C783,34 777,28 764,28C753,28 747,34 747,47l0,109C716,156 701,162 701,174C703,187 709,193 719,193M883,193C899,193 927,141 966,37l-19,-9C930,28 921,43 920,74l-64,0C851,43 842,28 829,28l-19,9C848,141 872,193 883,193M966,193l228,0C1206,191 1212,185 1212,174C1212,162 1197,156 1166,156l0,-109C1166,34 1160,28 1148,28C1136,28 1130,34 1130,47l0,109C1099,156 1084,159 1084,165C1075,159 1057,156 1029,156l0,-109C1029,34 1023,28 1012,28C999,28 993,34 993,47l0,109C962,156 947,162 947,174C949,187 955,193 966,193M1294,193C1349,184 1377,157 1377,110C1377,65 1352,34 1303,19C1242,27 1212,57 1212,110C1220,165 1247,193 1294,193M1468,193C1517,193 1541,168 1541,119l0,-45C1518,37 1490,19 1459,19C1420,19 1395,46 1386,101l0,37C1407,175 1435,193 1468,193M1568,193C1587,169 1596,135 1596,92l18,0C1623,159 1635,193 1651,193l9,0C1673,193 1685,156 1696,83l9,0C1713,156 1725,193 1742,193C1754,191 1760,185 1760,174C1733,77 1715,28 1705,28l-9,0C1682,28 1670,65 1660,138l-9,0C1635,65 1620,28 1605,28C1586,28 1568,80 1550,184M1842,193C1897,193 1925,159 1925,92C1905,43 1877,19 1842,19C1787,19 1760,55 1760,128C1778,171 1805,193 1842,193M2016,193C2065,193 2089,168 2089,119l0,-45C2066,37 2038,19 2007,19C1968,19 1943,46 1933,101l0,18C1933,168 1961,193 2016,193M2244,193C2287,193 2308,175 2308,138l-18,-10C2269,153 2251,165 2235,165C2210,159 2198,141 2198,110l0,-27C2198,74 2207,65 2226,56l27,0C2280,80 2296,92 2299,92l9,-18l0,-9C2291,34 2267,19 2235,19C2186,19 2162,55 2162,128C2180,171 2207,193 2244,193M2399,193C2454,184 2481,157 2481,110l0,-9C2474,46 2446,19 2399,19C2344,33 2317,63 2317,110C2329,165 2356,193 2399,193M2518,193l9,0C2541,193 2556,153 2573,74l9,0C2602,153 2620,193 2637,193C2649,191 2655,185 2655,174l0,-127C2655,34 2649,28 2637,28C2630,32 2627,59 2627,110l-9,0C2606,55 2594,28 2582,28l-9,0C2559,28 2547,58 2536,119l-9,0C2527,58 2521,28 2509,28l-9,19l0,127C2502,187 2508,193 2518,193M1249,128l0,-45C1249,74 1258,65 1276,56l36,0C1321,56 1331,65 1340,83l0,45C1340,138 1328,150 1303,165l-18,0C1276,165 1264,153 1249,128M1413,110C1426,74 1438,56 1449,56l37,0C1505,62 1514,80 1514,110C1509,147 1490,165 1459,165C1441,164 1426,146 1413,110M1797,110l0,-27C1797,74 1806,65 1824,56l36,0C1869,56 1879,65 1888,83l0,45C1888,138 1876,150 1851,165C1815,165 1797,147 1797,110M1961,101C1973,73 1985,58 1998,56l36,0C2053,62 2062,80 2062,110C2057,147 2038,165 2007,165C1976,156 1961,134 1961,101M2353,128l0,-18C2358,74 2367,56 2381,56l37,0C2427,56 2436,65 2445,83l0,27C2445,147 2430,165 2399,165C2372,153 2356,141 2353,128M875,119l0,-18l26,0l0,9C895,122 892,131 892,138C881,136 875,130 875,119M673,56l10,-19l-19,-9l-9,19M2125,56C2138,54 2144,48 2144,37l-19,-9C2113,28 2107,34 2107,47z"/>
<glyph unicode=" " horiz-adv-x="508"/>
<glyph unicode="R" horiz-adv-x="1182" d="M537,1435l27,0C649,1435 744,1397 848,1321C913,1262 961,1192 992,1111l0,-17C987,1094 967,1135 931,1216l-5,0l0,-8C938,1175 948,1135 957,1090l-4,-9C958,1049 961,1027 961,1015C961,974 955,933 944,893l0,-4l4,0C986,982 1005,1033 1005,1042l0,8C1015,1050 1022,1081 1027,1142l0,26C1027,1223 993,1269 926,1308l-17,18l0,4C910,1336 913,1339 918,1339C1002,1288 1044,1234 1044,1177C1044,1077 984,924 865,718C822,659 800,629 800,626C855,589 905,503 948,368C948,361 951,345 957,320l-4,0C958,316 964,280 970,211l-4,0l4,-9C970,199 969,198 966,198l4,-9l0,-35C970,151 969,150 966,150l4,-9C959,33 944,-21 926,-21C926,-18 925,-16 922,-16C945,23 957,97 957,207C957,228 953,268 944,325l-5,0l0,-14C942,295 944,284 944,277l-5,0C939,274 941,272 944,272C944,242 931,176 905,75l0,-21l-9,0l0,13l-5,0C845,-6 812,-43 791,-43C813,-21 833,2 852,27l0,5C814,19 795,12 795,10l-43,4C736,14 708,13 668,10C592,10 518,73 445,198C445,204 417,245 362,320l-4,0C347,264 334,226 319,207l4,-18C313,160 306,145 301,145C301,148 300,150 297,150l0,-5l4,-8l-9,-22l5,0C318,144 331,158 336,158l0,-13C285,75 245,40 218,40C215,37 205,36 188,36C81,36 11,153 -22,386l-9,118C-31,507 -30,508 -27,508C-27,511 -28,516 -31,521C-28,590 -21,645 -9,687l0,101l4,26C-5,817 -6,819 -9,819C14,936 33,1054 48,1173C87,1278 122,1330 153,1330l4,-9C114,1286 82,1234 61,1164l-18,-109l0,-18l5,0C68,1147 100,1229 144,1282C222,1363 311,1404 411,1404l13,0C532,1386 606,1369 647,1352C764,1303 825,1263 830,1230C853,1206 869,1185 878,1168l-8,-4C861,1173 856,1181 856,1186l-4,0l0,-5C875,1121 887,1076 887,1046C887,1000 878,948 861,889l-9,0l0,4C861,930 868,972 874,1020l0,26l-4,44l-5,0C865,997 837,901 782,801C729,725 688,687 660,687C665,680 668,675 668,670l9,0C736,689 781,722 813,771C813,776 827,804 856,854C877,908 887,941 887,954l9,0C896,951 897,946 900,941C896,890 863,818 800,727l0,-5C805,723 818,734 839,757l-4,0C835,754 833,753 830,753l0,4C889,817 918,870 918,915C912,940 909,961 909,980C922,980 929,961 931,924l4,0C941,945 944,966 944,989C944,1016 938,1047 926,1081l9,4l9,-4l0,4C941,1133 924,1187 891,1247C818,1328 738,1369 651,1369l-26,0C619,1369 616,1372 616,1378C616,1383 622,1387 633,1391C654,1391 686,1385 730,1374l4,0l0,4C699,1393 651,1407 590,1422C550,1416 518,1413 494,1413l-5,9C489,1431 505,1435 537,1435M371,1396C371,1389 349,1381 306,1374C259,1355 228,1336 214,1317l4,0C280,1356 335,1380 384,1387l0,4C381,1391 377,1393 371,1396M358,1369l0,-8C364,1364 368,1365 371,1365l0,9C366,1371 361,1369 358,1369M327,1330l-8,0l0,9C319,1345 329,1351 349,1356l0,9l-13,0C262,1333 202,1294 157,1247C166,1247 170,1244 170,1238C170,1231 157,1214 131,1186C107,1146 85,1072 65,963C65,960 67,958 70,958C66,919 63,896 61,889l4,-9C62,849 59,830 56,823l5,-9C58,785 56,764 56,749l5,-31C58,713 56,707 56,701C59,685 61,673 61,666l-5,0l5,-9C61,654 59,652 56,652l5,-8C61,641 59,639 56,639l5,-21l0,-44l-9,0C52,590 51,610 48,635C48,638 49,639 52,639l-4,31l0,48C48,721 49,722 52,722l-4,9l0,131C48,865 49,867 52,867C52,870 51,871 48,871C51,888 55,936 61,1015l0,5l-5,0C56,1014 55,1011 52,1011C52,1008 53,1007 56,1007C42,919 35,842 35,775l0,-66C35,706 33,705 30,705l5,-9l0,-65C35,628 33,626 30,626l5,-8l0,-5C35,610 33,609 30,609l5,-9l0,-39C35,550 36,537 39,521C39,518 38,517 35,517C49,346 72,250 105,228C118,208 134,198 153,198l26,9l4,-9C172,189 162,185 153,185C78,185 34,300 21,530l5,9l-5,26C21,568 23,569 26,569l-5,9l0,13C21,594 23,596 26,596l-5,8C21,618 23,633 26,648l-5,26C24,679 26,685 26,692C17,690 13,678 13,657l0,-53C13,592 11,576 8,556C11,551 13,544 13,534l-5,0l13,-100l-4,0l13,-66l-4,0l35,-153C80,172 101,145 126,132l9,0C156,132 177,142 196,163l9,0l0,-5C187,129 167,115 144,115l-9,4C130,116 125,115 122,115C84,143 65,166 65,185l-9,0l0,-5C93,110 127,75 157,75l17,0C180,75 183,78 183,84l9,-4C211,91 224,97 231,97l-4,9C266,151 300,202 327,259C333,288 342,310 354,325l0,4l-35,92l-5,0l-8,-44l-9,0C303,423 306,459 306,486C306,539 297,604 279,679l9,4C305,671 316,608 319,495l0,-17l-5,-9C329,469 336,450 336,412l22,-57l4,0C376,410 386,438 393,438C393,435 394,434 397,434C397,454 400,464 406,464l5,0C411,411 490,307 647,150C684,127 711,113 730,106l0,-9C642,120 537,222 415,403C409,410 406,418 406,425l-4,0l-5,-39C400,380 402,376 402,373l4,0C406,382 409,386 415,386C440,339 456,311 463,303l0,-5l-4,0C427,333 411,355 411,364l-5,0l0,-4C429,301 475,239 546,172C611,107 677,75 743,75C776,75 811,93 848,128l8,0l0,-9C842,88 820,63 791,45l-5,0l0,-13l5,0C836,32 872,65 900,132l-4,9l0,26C896,306 864,414 800,491C781,534 756,556 725,556C690,530 645,502 590,473l0,5C575,472 563,469 555,469l96,52C683,541 700,554 703,561C698,561 695,564 695,569C695,576 702,580 717,583C722,580 727,578 730,578l0,5C719,600 712,609 708,609C661,545 623,513 594,513l-13,0C575,513 572,516 572,521l0,5C572,531 587,536 616,539C657,575 685,603 699,622C693,622 690,625 690,631C668,625 648,622 629,622l-26,0C524,641 485,657 485,670l0,4C485,680 489,683 498,683C507,676 525,670 550,666C553,666 555,667 555,670C580,664 601,661 620,661l5,0l0,5l-70,17l0,9l70,0l-5,22l9,4l4,0C642,718 647,712 647,701C696,708 745,759 795,854C823,929 839,968 843,972l-4,8C848,1015 852,1040 852,1055l0,30C852,1088 853,1090 856,1090C847,1136 826,1178 791,1216C746,1260 722,1282 717,1282C717,1276 715,1273 712,1273C686,1287 667,1299 655,1308C630,1301 610,1285 594,1260l-4,0C584,1260 581,1263 581,1269l0,17l13,18l-9,0C566,1304 534,1292 489,1269l-9,13C521,1311 570,1326 625,1326l0,4C598,1336 579,1339 568,1339l-26,0C539,1339 537,1340 537,1343l-8,-4C526,1339 524,1340 524,1343C431,1326 366,1300 327,1265C294,1244 276,1234 271,1234l-9,13C356,1317 454,1352 555,1352l0,4l-70,18C444,1372 391,1357 327,1330M599,1356l0,-4C604,1352 612,1349 625,1343l4,0l0,5C624,1348 616,1351 603,1356M760,1269l0,-4C801,1226 821,1201 821,1190l9,0C817,1217 794,1244 760,1269M100,1168l-4,-17l0,-5l4,0l5,18l0,4M485,1160l26,0C555,1160 593,1126 625,1059C625,1056 629,1039 638,1007l-9,-5C604,1095 559,1142 494,1142l-22,-4l0,4C449,1136 428,1127 411,1116C399,1120 393,1124 393,1129C406,1150 436,1160 485,1160M489,1120l5,0C499,1119 502,1116 502,1111C497,1110 494,1108 494,1103l0,-5C525,1098 566,1072 616,1020l0,-5l-35,-91C562,880 530,858 485,858C486,852 489,849 494,849C521,849 547,865 572,897l53,83C630,979 633,977 633,972C595,879 551,832 502,832C487,832 449,846 389,875C371,896 362,926 362,963l0,13C362,990 372,1005 393,1020C393,1059 418,1085 467,1098C467,1106 474,1113 489,1120M992,1094C998,1093 1001,1090 1001,1085l0,-8l-9,0M441,1015l9,-4C450,1015 459,1024 476,1037C482,1036 485,1033 485,1028C463,1007 450,981 445,950C445,929 460,905 489,880C528,897 562,942 590,1015C555,1059 523,1081 494,1081l-18,0C469,1081 457,1059 441,1015M437,1068C427,1059 417,1043 406,1020C410,988 416,972 424,972C424,998 425,1011 428,1011l-4,9C429,1029 434,1045 441,1068M389,1002l-9,-57C380,910 399,886 437,871l0,4C428,902 424,924 424,941C427,941 428,942 428,945C405,959 393,978 393,1002M26,906l0,-35l4,0l0,35M13,884l0,-17l4,0l0,17M852,880l0,-22l-13,0l0,4C843,874 847,880 852,880M8,854C5,815 4,785 4,766l0,-65l4,0l18,39l0,4C17,755 13,765 13,775l0,79M21,810C21,798 20,792 17,792C20,787 21,782 21,779l5,0l0,31M752,661C761,650 774,644 791,644C822,678 850,717 874,762l0,4C819,701 778,666 752,661M577,648l0,-4l30,-5l0,9M642,644l0,-5l18,0C665,639 668,642 668,648l-4,0M734,639C734,634 731,631 725,631C727,622 737,613 756,604l13,18l0,4C749,635 737,639 734,639M782,618C782,612 776,603 765,591C849,514 891,473 891,469C894,463 896,459 896,456l9,0C886,513 845,567 782,618M-9,613l0,-26l4,0l0,26M756,578l0,-4l13,-9l0,4M61,565l4,0l0,-4C65,522 68,476 74,421l-9,0C59,468 55,514 52,561M-5,556C-11,537 -14,524 -14,517l0,-39C-14,453 -7,399 8,316l5,0C13,319 14,324 17,329l-13,66l9,4l-13,39C0,441 1,443 4,443l-4,21l0,5C0,472 1,473 4,473l-4,9l0,61l4,9M791,534l0,-4l48,-70l0,4C816,507 800,530 791,534M830,513l0,-9C849,477 876,411 909,307l0,-9l-9,0C903,275 906,233 909,172C906,166 905,161 905,158l0,-4l4,0C924,209 931,245 931,263C931,371 897,454 830,513M616,473l9,0C625,467 622,464 616,464l-9,0C608,470 611,473 616,473M70,412C75,411 78,408 78,403l0,-8l-8,0M292,368l9,0l0,-13C280,270 261,221 244,207l-4,0C240,212 256,252 288,329C288,332 287,333 284,333C289,355 292,367 292,368M371,360C371,350 370,343 367,338C378,329 388,313 397,290l5,0l0,13C387,320 380,339 380,360M13,311C34,230 48,189 56,189l5,0l0,4C50,212 38,248 26,303M415,303l0,-5C454,196 518,122 607,75l40,-13l0,9C640,71 630,81 616,102C539,147 474,214 419,303M362,207l5,0C362,195 358,189 354,189l0,9C355,204 357,207 362,207M301,189l0,-13C306,176 310,180 314,189M292,172C292,153 263,116 205,62l13,0C243,62 270,97 297,167l0,5M498,141C555,65 609,27 660,27l43,0l0,5C660,52 626,62 599,62C570,80 536,106 498,141M703,49l0,-4l31,-9C749,36 773,46 808,67l0,8C805,71 770,62 703,49M677,67l0,-5C683,62 686,61 686,58l9,4l8,-4l5,0l0,4l-22,5M148,62C148,55 161,51 188,49C188,55 175,59 148,62M765,36C766,30 768,27 773,27l5,0l0,13C772,37 768,36 765,36z"/>
<glyph unicode="S" horiz-adv-x="1086" d="M562,1441l26,0C588,1435 585,1432 580,1432l-18,0M597,1441l30,0C658,1441 696,1427 740,1398C847,1361 900,1299 900,1212C897,1212 896,1210 896,1207C905,1207 910,1187 913,1147l0,-87C913,1021 870,962 783,883C780,883 776,881 770,878l5,-8C775,865 755,859 714,852C696,841 671,835 640,835l0,-4C764,739 826,674 826,636l35,-56C876,549 883,523 883,502l-5,-9l5,-17C883,401 834,303 736,182C713,163 687,129 658,78l-9,-4l-4,0l0,4l30,47l0,5l-4,0C671,121 638,99 571,65C571,68 570,69 567,69C567,64 561,59 549,52l-8,4C476,19 424,0 385,0C337,0 301,9 277,26C245,32 216,39 190,48C170,42 154,39 143,39C68,39 6,92 -43,199l-22,78C-65,323 -40,386 9,467C50,502 86,519 117,519C120,519 121,518 121,515l22,4l26,0l13,-8l39,0C187,548 158,589 134,636C53,730 13,824 13,917C13,937 14,954 17,969C14,984 13,999 13,1013C13,1094 52,1176 130,1259l95,69C222,1334 221,1338 221,1341C294,1399 368,1428 441,1428C492,1428 531,1421 558,1406l9,5C570,1411 571,1409 571,1406C574,1406 575,1408 575,1411l22,-5C600,1406 605,1408 610,1411l17,-5C630,1406 638,1408 653,1411C668,1408 683,1406 697,1406C690,1417 656,1427 597,1437M260,1341l8,0C276,1341 312,1354 376,1380C393,1380 430,1384 489,1393l0,9C478,1402 472,1403 472,1406C469,1406 467,1405 467,1402l-21,4C376,1406 314,1384 260,1341M489,1380l-4,-8l-22,4C426,1366 385,1352 342,1333l-5,8C340,1346 342,1352 342,1359C327,1350 317,1346 311,1346l0,-5l9,-13C271,1328 220,1299 169,1242l4,-9l0,-4C115,1168 86,1074 86,948C86,905 103,853 138,792C151,767 183,748 234,736l0,-5C234,726 231,723 225,723l-4,0C216,723 212,727 208,736l-9,-5l-17,9C224,679 257,649 281,649C294,649 336,662 407,688l4,-9l-35,-17C376,665 375,666 372,666C372,659 346,651 294,640C294,636 308,630 337,623l5,-9l-9,-4C287,627 252,636 229,636l-4,-9C274,585 329,553 389,532C400,532 407,526 411,515l82,-30C516,476 530,472 536,472l9,0C548,472 564,475 593,480C598,479 601,477 601,472l-26,-9l0,-4C592,457 601,453 601,446l-8,-5C581,441 566,445 549,454C526,449 502,446 476,446l-13,0C432,446 402,450 372,459C367,456 361,454 355,454C355,457 335,466 294,480l-60,44l0,-5C292,470 347,441 398,433l0,-5l-26,0C351,428 303,450 229,493l-4,0C222,493 217,492 212,489C209,489 208,490 208,493l-22,-4l-4,0C179,489 177,490 177,493l-8,-4l-26,0l0,-9l43,0C192,479 195,477 195,472l-52,-18l-22,-4l4,-9l0,-8C114,420 108,409 108,402C108,363 121,342 147,338l0,-5C144,318 143,309 143,307C201,194 261,138 324,138C324,135 327,134 333,134C348,134 386,143 446,160l8,0l0,-4C454,141 419,130 350,121l-13,0C271,121 209,164 151,251l0,-4C204,158 252,113 294,113C294,105 320,98 372,91C413,95 458,111 506,138C558,177 596,211 619,238C634,249 642,255 645,255l0,-4C555,153 497,104 472,104C472,100 465,93 450,82l-9,5C441,83 430,76 407,65l-5,0l-8,4C394,64 391,61 385,61C380,64 374,65 368,65l-5,-9l0,-4C369,52 372,51 372,48l9,4l30,0C527,87 624,154 701,255C741,290 771,342 792,411l-5,22C790,476 793,498 796,498C784,601 765,653 740,653l0,-4C766,580 779,524 779,480l0,-65C779,410 776,407 770,407l-4,0l0,4C766,525 752,593 723,614C689,673 633,728 554,779C551,779 540,778 519,775l-8,17C518,798 523,801 528,801l0,4C517,818 511,828 511,835l8,5l9,0C547,814 567,801 588,801l13,0l0,8C578,818 559,831 545,848C546,854 549,857 554,857l8,0l87,-69l9,-5l0,13C632,805 619,813 619,818l0,9l4,8C598,835 568,855 532,896C507,896 475,918 437,961C437,966 436,969 433,969l-44,-13C384,956 381,959 381,965l0,9C381,977 391,983 411,991l26,0C492,991 576,958 688,891C790,940 853,999 878,1069l-4,9l17,69C886,1167 881,1202 874,1251l-4,0l0,-44C870,1201 871,1195 874,1190C871,1175 868,1168 865,1168l5,-8l-5,-22l-8,0l0,52C857,1197 858,1202 861,1207C855,1222 852,1234 852,1242l5,0C843,1285 833,1307 826,1307l0,-4C841,1276 848,1244 848,1207C848,1151 831,1086 796,1013C791,1013 786,1019 779,1030C784,1057 787,1079 787,1095C787,1166 773,1224 744,1268C739,1267 736,1264 736,1259C745,1259 749,1256 749,1251l-5,-9C753,1239 757,1231 757,1216l0,-4l-8,0C749,1245 708,1291 627,1350C600,1370 554,1380 489,1380M645,1380l0,-4C676,1376 718,1339 770,1264C785,1241 796,1201 805,1142l-5,-21l0,-43l-4,-22l9,0C822,1117 831,1161 831,1190l0,17l-5,22l5,0C814,1298 794,1333 770,1333C770,1340 764,1345 753,1350C753,1344 750,1341 744,1341C709,1364 677,1377 649,1380M437,1346l4,-9C395,1325 346,1289 294,1229C282,1229 253,1190 208,1112C182,1062 169,1013 169,965C169,914 188,871 225,835l0,-4l-4,0C192,854 177,871 177,883l-4,0l0,-5C208,806 255,756 316,727l4,0C335,727 356,728 385,731C385,726 376,721 359,714l-9,4l-13,0l0,-4C340,709 342,704 342,701C327,710 313,714 298,714C298,711 297,710 294,710C294,715 291,718 286,718l-5,0l-21,-4C260,720 254,723 242,723l0,8C268,728 284,725 290,723l4,8l-8,5C286,733 284,731 281,731C281,740 278,744 273,744C273,741 271,740 268,740C179,810 134,897 134,1000l0,30C134,1100 169,1163 238,1220l9,0l0,-4C183,1151 151,1093 151,1043C151,1029 150,1015 147,1000C150,984 151,968 151,952l9,0l-4,22l0,21C161,1069 207,1154 294,1251C351,1306 384,1333 394,1333C409,1342 423,1346 437,1346M30,1043l0,-4l5,0C73,1132 119,1206 173,1259C192,1282 207,1294 216,1294l0,9C137,1263 78,1192 39,1090C33,1060 30,1044 30,1043M108,1164l-39,-78l4,-8C48,1035 35,1000 35,974l8,-5C40,955 38,948 35,948C40,925 55,889 78,840l4,0l0,12C76,862 73,871 73,878C73,881 75,886 78,891C69,908 65,924 65,939l13,22l0,17C78,1056 89,1117 112,1160l0,4M900,1073C900,1039 848,976 744,883l5,0C828,934 879,993 904,1060l0,13M463,969l0,-8C487,932 509,917 528,917C533,917 536,923 536,935l13,0l22,-26l48,0l0,4C552,950 501,969 467,969M593,891l0,-4C596,887 600,886 606,883l26,4C637,886 640,883 640,878C645,881 653,883 666,883l0,4C656,887 647,891 640,900C615,894 600,891 593,891M35,891l0,-4l13,-35l4,0l0,5C43,876 39,888 39,891M593,865l0,-4l30,-4l13,0l0,4C624,861 612,862 601,865M43,840l0,-18C49,822 52,825 52,831C52,837 49,840 43,840M69,814l-4,-22C73,764 90,737 117,710l4,0C121,721 124,729 130,736C99,788 81,814 78,814M588,783l0,-4l96,-87C685,698 687,701 692,701C664,756 629,783 588,783M692,736l0,-9C695,727 706,714 723,688l13,-9l4,0l0,5C719,713 703,731 692,736M164,731l0,-8l52,-74l26,0C242,654 223,671 186,701C189,701 190,702 190,705C176,714 169,722 169,731M156,701l0,-4C159,674 163,662 169,662l13,0C167,679 160,692 160,701M783,684l0,-9C794,655 802,645 805,645l0,4C800,665 793,677 783,684M710,662C714,651 718,645 723,645l0,4C720,654 718,659 718,662M381,623C402,601 427,574 454,541l-4,0C431,546 404,569 368,610l-9,-4C355,606 351,610 346,619C353,619 365,620 381,623M190,614l0,-4l52,-34l5,0C233,590 214,603 190,614M813,606l5,-26l4,0l0,21M216,571C294,496 375,459 459,459l8,0l44,4l0,4C442,473 364,499 277,545M839,558l0,-4C839,551 841,550 844,550C832,486 825,421 822,355C817,340 813,333 809,333l0,30l4,31l-8,0C805,373 780,310 731,203l9,0C808,294 848,376 861,450l0,4C861,457 860,459 857,459l4,21C861,491 857,517 848,558M805,541l0,-9C805,516 806,506 809,502C806,464 803,442 800,437l0,-4l5,0C805,437 809,451 818,476C815,491 813,504 813,515l0,17C813,538 810,541 805,541M9,441l0,-4C42,468 64,484 73,485C86,490 99,493 112,493l0,5l-21,0C47,481 20,462 9,441M69,450l0,-4l9,0C78,453 91,460 117,467l0,5l-13,0M-4,389l4,0C29,414 43,431 43,441C22,426 6,408 -4,389M39,368l0,-9l4,0C43,378 52,398 69,420l-4,0C54,420 45,403 39,368M86,420C66,381 56,358 56,351l0,-44C56,301 60,282 69,251l4,0C73,255 76,271 82,299l9,0l0,-31C91,262 89,256 86,251C89,246 91,240 91,234l-5,0C111,173 151,143 208,143l0,-9C196,134 190,131 190,125C193,125 195,124 195,121C192,121 187,120 182,117C135,137 109,150 104,156C69,212 48,254 39,281l-4,0C35,276 32,268 26,255C26,226 55,183 112,125C161,92 186,72 186,65C211,72 234,80 255,91l0,4C213,104 191,108 190,108l0,5C191,118 194,121 199,121C225,116 239,113 242,113C155,186 112,258 112,329C98,348 91,378 91,420M-26,316C-26,232 23,156 121,87C142,78 153,74 156,74C120,93 95,110 82,125C45,170 21,206 9,234C9,244 7,257 4,273C11,290 20,299 30,299C30,302 27,313 22,333C22,336 23,338 26,338l-4,8l0,9l4,30l-4,0C-10,363 -26,340 -26,316M506,61l0,-5l5,0C565,77 640,142 736,251C736,258 742,269 753,286l0,4C646,158 564,82 506,61M597,95l4,0C674,140 710,170 710,186l0,4l-5,0C677,160 641,128 597,95M-13,182l0,-5C-13,150 20,114 86,69l26,-8l9,0l0,4C75,77 30,116 -13,182M311,82l-4,-8l0,-5l22,-4C358,71 376,74 381,74l0,4C376,78 353,79 311,82M268,65l0,-9l22,0l0,9M485,52l0,-4l4,0C494,51 499,52 502,52l0,4l-4,0C492,53 488,52 485,52M286,43l0,-4l47,0l9,-4l0,8C332,43 325,45 320,48C315,45 310,43 303,43C300,43 298,45 298,48C293,45 289,43 286,43M324,26C324,19 340,15 372,13C408,19 428,22 433,22l0,4C421,26 415,29 415,35C384,29 354,26 324,26z"/>
<glyph unicode="a" horiz-adv-x="1494" d="M844,1431C859,1428 866,1426 866,1423C869,1423 870,1424 870,1427C899,1427 931,1408 966,1370l0,-13C935,1386 899,1405 857,1414l-9,-5l-26,0C819,1409 818,1411 818,1414C813,1411 798,1408 774,1405l0,4l-17,-8l-9,4C743,1402 738,1401 735,1401l0,-5C842,1396 924,1367 979,1309C1016,1260 1035,1218 1035,1183l-8,0C1014,1242 983,1291 935,1331C904,1346 885,1353 879,1353C910,1320 929,1296 935,1279l9,4l13,0C1022,1188 1064,1117 1083,1070l13,9l9,0C1118,1079 1153,992 1209,818l48,-170l0,-9l-4,-8C1256,631 1257,629 1257,626C1254,626 1253,625 1253,622l13,0l0,-4C1260,618 1257,612 1257,600l-9,0C1240,660 1226,720 1205,779l-4,0l0,-13C1206,744 1209,729 1209,722l-8,0C1188,789 1170,843 1148,883l-4,0l0,-4C1199,705 1227,611 1227,596C1236,587 1240,576 1240,561l4,0l0,13l9,0l0,-22C1262,552 1266,559 1266,574l9,0l0,-13l4,-22l-9,0l0,13l-4,0l-9,-21l-9,0l0,8l-4,0l0,-4C1253,528 1262,486 1270,409C1265,408 1262,405 1262,400C1265,395 1266,390 1266,387l-4,0C1262,384 1263,383 1266,383C1254,294 1235,212 1209,135l5,0l34,43l9,0l0,26C1266,215 1270,225 1270,235l-4,39C1272,294 1275,311 1275,326l8,0l0,-4C1283,307 1286,286 1292,261l-9,0l0,13l-4,0l0,-22C1279,247 1283,244 1292,244l0,-13l-4,0l0,8l-9,0C1266,172 1255,133 1244,122l0,9C1244,134 1245,135 1248,135C1245,140 1244,145 1244,148l-4,0C1191,69 1139,30 1083,30C1057,17 1044,8 1044,4l0,-4l-13,0l-65,22C895,91 826,185 761,305C746,322 725,361 700,422l-4,0l-130,-30C545,311 505,235 444,165C369,83 325,38 313,30l-4,0C303,30 300,33 300,39l0,9C335,76 352,92 352,96C349,101 348,106 348,113C337,113 322,104 305,87C296,87 271,74 231,48l-53,-4l-4,0C118,65 86,84 78,100C58,118 39,162 22,231C12,231 5,248 0,283l0,22C0,410 65,606 196,892C252,989 303,1068 348,1131C418,1203 456,1239 461,1240l9,-5C550,1348 609,1405 648,1405l35,0M674,1344l-13,0l0,9C598,1328 550,1294 518,1253C506,1248 491,1229 474,1196l0,-8C482,1195 505,1207 544,1222C545,1228 547,1231 552,1231l5,0l0,-4C551,1206 536,1192 513,1183C513,1179 509,1175 500,1170l-4,0l0,5l4,8l-4,0C461,1164 444,1137 444,1101l-9,0l0,4C435,1109 439,1123 448,1148l-9,0C390,1067 365,1016 365,996C426,1076 477,1127 518,1148C518,1151 534,1165 566,1188l8,0C574,1183 539,1154 470,1101C470,1097 457,1082 431,1057C425,1048 422,1039 422,1031l0,-9l4,0C426,1031 436,1042 457,1057l13,0l0,-4C411,992 353,905 296,792C253,715 213,607 178,470l0,-5l5,-17C171,415 165,375 165,326l5,-30l-5,0l5,-9l0,-22l-9,0l0,13l-4,53l4,0l-4,8C157,342 158,344 161,344C161,347 160,351 157,357C160,442 187,567 239,731l9,0l0,-9C252,723 268,756 296,822l-5,9C297,840 300,848 300,853l0,4l-4,0C271,779 255,740 248,740l0,4C248,771 281,860 348,1009C348,1024 349,1041 352,1061C276,966 224,882 196,809l-5,0l0,4C204,872 266,972 378,1114l48,69C376,1145 331,1093 291,1027C206,899 123,719 44,487C23,398 13,338 13,305l0,-14l4,-30l9,0l-4,22l0,8C22,294 23,296 26,296C26,299 25,300 22,300l4,22l-4,9l26,117C63,489 90,556 131,648C148,728 168,782 191,809l0,-9l-39,-104l0,-4l5,0C197,779 223,822 235,822l4,0l-65,-113l0,-4l4,0C195,739 208,758 218,761l8,0l0,-4C156,666 120,601 117,561l0,-30C110,531 103,483 96,387l0,-9C96,375 94,374 91,374l5,-9l0,-30C96,274 110,236 139,222C139,207 165,189 218,170C232,170 249,168 270,165l0,-8l-13,0l-26,-5C154,176 101,214 70,265C53,292 44,311 44,322l0,13C45,341 47,344 52,344C61,314 74,288 91,265C86,287 83,307 83,326C83,329 84,331 87,331C84,336 83,341 83,344C83,416 87,452 96,452C96,455 94,457 91,457C93,480 96,492 100,492C100,495 99,496 96,496l4,43l0,13l-4,0C55,441 35,359 35,305l0,-31C35,173 70,107 139,74l0,9C130,83 126,92 126,109C132,109 135,112 135,117C135,120 126,129 109,144l0,8C110,158 112,161 117,161l5,0C139,136 165,117 200,104C279,123 318,141 318,157C329,157 362,193 418,265l0,-8C414,242 408,235 400,235l0,-4l9,0C409,235 413,239 422,244l4,0l0,-5l-100,-108l0,-9l74,48C401,164 404,161 409,161C469,234 517,312 552,396l-43,0C506,396 505,397 505,400l-9,-4C479,402 470,408 470,413C470,419 474,422 483,422C490,422 506,419 531,413l8,5C544,415 550,413 557,413l9,0C566,421 570,430 579,439l0,13l-44,5l-43,-5C486,459 483,467 483,474C476,474 470,473 465,470l-8,4l-31,-9l-17,22l13,9l48,0C473,496 474,495 474,492l9,4l26,0C515,495 518,492 518,487C587,495 622,504 622,513l4,-8C623,505 622,503 622,500C706,500 793,507 883,522l0,-4C883,510 853,503 792,496l-9,4C778,497 771,496 761,496C770,483 774,470 774,457l5,0C779,472 785,479 796,479C804,452 811,439 818,439l26,5l9,0l0,-5C853,434 838,429 809,422C826,372 865,289 927,174l34,-61C976,105 983,98 983,91l9,5l22,0l-27,56C990,157 992,163 992,170C951,226 931,269 931,300l0,9l13,0C944,262 977,201 1044,126C1061,116 1079,107 1096,100C1102,103 1106,104 1109,104l0,-4C1148,100 1174,141 1188,222C1193,297 1198,341 1201,352C1201,355 1199,357 1196,357l5,21C1201,433 1197,502 1188,583l0,9l4,0C1207,535 1214,457 1214,357l-5,-18l5,-8C1208,304 1205,285 1205,274l4,-9C1206,245 1204,235 1201,235C1201,232 1202,231 1205,231C1202,204 1198,180 1192,157l0,-5l4,0C1222,243 1237,301 1240,326C1243,326 1244,328 1244,331l-4,0C1245,372 1250,392 1253,392l-5,8l0,22C1248,429 1250,434 1253,439C1250,445 1248,449 1248,452C1248,455 1250,460 1253,465l-22,87l-4,0l0,-4l4,-26l-13,0C1185,697 1155,800 1127,831C1113,848 1095,857 1074,857C1074,834 1079,797 1088,744l-9,-4C1079,754 1070,790 1053,848l0,5C1058,853 1061,847 1061,835l5,0l0,5C1057,924 1043,993 1022,1048l-4,0C1024,1021 1028,995 1031,970l-4,0l4,-9l0,-17C1031,929 1038,898 1053,853C1048,853 1026,893 987,974C966,1009 931,1049 883,1092l0,4C889,1099 893,1101 896,1101C959,1050 999,995 1018,935l4,0l0,26l-4,22l4,0C1022,1054 971,1133 870,1218C859,1218 849,1227 840,1244C813,1248 795,1251 787,1253C787,1247 784,1244 779,1244l0,4l-9,-4C767,1244 766,1245 766,1248C759,1245 744,1243 722,1240l0,4C679,1229 632,1211 579,1188l-5,0C574,1193 603,1209 661,1235C664,1235 666,1234 666,1231C682,1244 715,1252 766,1257C766,1260 767,1262 770,1262l26,-5l4,0l-8,13C793,1279 805,1283 827,1283C858,1276 894,1260 935,1235l0,5C891,1294 848,1333 805,1357l0,5l-9,-5l-17,0l0,5l8,13C784,1375 780,1376 774,1379C735,1379 701,1367 674,1344M626,1305l13,0C645,1304 648,1301 648,1296C618,1278 592,1258 570,1235l-4,0l0,5C566,1245 586,1267 626,1305M822,1262l0,-5C829,1257 835,1256 840,1253l0,9M892,1235l0,-4C900,1231 909,1228 918,1222l0,5l-18,8M892,1222l0,-4C946,1175 978,1139 987,1109l14,0l0,9l-31,57C944,1204 930,1218 927,1218C927,1212 924,1209 918,1209l-22,13M979,1205l0,-4C1000,1158 1017,1129 1031,1114l4,0C1014,1157 996,1188 979,1205M1035,1109l0,-4C1039,1090 1043,1083 1048,1083l0,5C1045,1102 1040,1109 1035,1109M1022,1096l0,-13C1027,1083 1034,1066 1044,1031C1049,1031 1057,1027 1066,1018l-39,78M1096,1053l0,-5C1112,1021 1141,953 1183,844l5,0l0,4C1159,933 1132,1002 1105,1053M409,1035C351,956 316,891 305,840C313,843 327,868 348,914C377,947 399,979 413,1009l-4,9C412,1023 413,1028 413,1031l0,4M679,1031C736,1014 778,982 805,935C816,900 824,869 827,844l-9,0C785,945 753,996 722,996C722,998 713,1002 696,1009l-17,0C644,1009 616,1002 596,987l-13,0C577,987 574,990 574,996l0,5C574,1012 609,1022 679,1031M1105,1001l0,-9C1120,965 1127,949 1127,944l4,0l0,9C1116,978 1109,994 1109,1001M1048,987C1053,976 1061,942 1070,883l22,0C1107,872 1115,866 1118,866l0,8l-61,118l0,4C1051,995 1048,992 1048,987M648,992l18,0C669,992 670,990 670,987l9,5l13,0C697,991 700,988 700,983C679,974 665,970 657,970l4,-30C652,940 639,915 622,866C643,834 676,818 722,818C751,825 771,838 783,857l9,0l0,-9C748,785 709,753 674,753l0,-5l5,0C692,754 707,757 722,757l4,-9C706,737 686,731 666,731C667,725 669,722 674,722l22,0l0,-13l-22,-4l-13,0C644,705 604,730 539,779l0,-5C570,719 602,692 635,692C635,689 636,687 639,687C639,692 648,697 666,700l8,-4C741,714 784,743 805,783C812,802 820,812 827,813C827,810 828,809 831,809C812,763 786,730 753,709C744,700 719,687 679,670C662,655 643,648 622,648l-13,0C606,648 605,650 605,653l-9,-5C541,677 513,730 513,805C490,838 479,874 479,914l0,4C492,950 515,966 548,966l4,0C558,965 561,962 561,957C561,952 545,944 513,931C503,922 497,909 496,892C502,880 505,870 505,861l8,0C524,914 542,940 566,940M1083,966l0,-5C1088,950 1092,944 1096,944l0,13C1091,957 1088,960 1088,966M605,914l0,-22l8,0C613,898 620,914 635,940l-4,0C619,934 610,925 605,914M1114,922l0,-8C1119,903 1125,886 1131,861l4,0l0,5C1126,903 1119,922 1114,922M583,887l-9,-39C577,843 579,838 579,835l-5,0l13,-39l5,0C595,835 596,860 596,870C590,870 587,876 587,887M535,866l-4,-22l0,-26C545,801 552,789 552,783l5,0l9,4C548,826 539,853 539,866M613,840l-4,-22l0,-35C628,774 647,770 666,770C698,776 724,790 744,813l-4,0C729,808 718,805 705,805l-5,0C667,805 638,817 613,840M1083,731l5,-9l0,-9l-5,0C1077,713 1074,716 1074,722C1075,728 1078,731 1083,731M548,722l0,-4C565,683 588,666 618,666C634,669 646,670 653,670l0,4C614,674 579,690 548,722M1205,713l9,0C1219,682 1228,654 1240,631l0,-35l-9,0C1231,602 1222,641 1205,713M1114,622l8,0l0,-13l-8,0M1253,587l9,0l0,-13l-9,0M1262,526l8,0l0,-13l-8,0M1218,513l13,0l4,-21l-8,0C1221,492 1218,495 1218,500M1275,509l8,0l0,-13l-8,0M713,496C710,470 709,454 709,448l26,0l9,4l-4,22l17,18l0,4M613,483C610,477 609,473 609,470l83,-18l-5,9l0,18l9,13l-9,0C638,491 613,488 613,483M535,479l0,-5C551,474 571,473 596,470l4,17C583,482 561,479 535,479M1222,487C1228,484 1232,483 1235,483l0,-9C1235,467 1234,462 1231,457C1234,452 1235,446 1235,439l0,-4l-4,0C1225,454 1222,467 1222,474M1270,483C1276,480 1280,479 1283,479l5,-44l-5,0l5,-9C1288,421 1285,418 1279,418C1273,433 1270,454 1270,483M596,452C596,447 590,434 579,413l4,0l43,5l0,-5C656,428 678,435 692,435l0,4M718,426C731,363 805,240 940,57C947,57 964,47 992,26l13,0C994,51 946,104 861,187C800,266 766,329 757,374C760,389 763,396 766,396C766,419 750,431 718,431M783,426C784,389 818,306 887,178C894,165 906,154 922,144C919,144 918,142 918,139l13,0l0,5C862,267 815,361 792,426M1283,387l0,-4C1280,377 1279,373 1279,370l-9,0l0,4C1270,378 1274,382 1283,387M1231,383l9,0l0,-18l-5,0M1275,361l8,0C1286,346 1288,337 1288,335l-9,-4l-4,8l0,5C1275,347 1276,348 1279,348l-4,9M1231,339l4,-8l-4,-22l-9,0l0,22C1223,336 1226,339 1231,339M805,300C805,297 817,277 840,239l4,0l0,9l-35,52M435,296l0,-5C432,274 428,265 422,265l-4,0l0,9C425,289 431,296 435,296M1144,283l4,0C1148,280 1150,275 1153,270C1150,265 1148,259 1148,252C1151,252 1153,251 1153,248l-9,-4l-4,0l0,13C1140,260 1141,261 1144,261l-4,9C1143,275 1144,280 1144,283M1140,218l8,0l0,-35l-8,0M383,148l0,-9C388,142 393,144 396,144l0,8C390,149 386,148 383,148M1144,157l4,0l0,-18l-4,0M1022,122C1037,90 1053,74 1070,74l44,0l0,4C1091,78 1062,93 1027,122M204,87C185,90 167,95 148,104l0,-8C153,79 166,70 187,70C228,70 260,83 283,109l-5,0C263,98 238,91 204,87M983,78C1004,46 1015,30 1018,30l17,0C1050,30 1059,35 1061,44l-74,34z"/>
<glyph unicode="d" horiz-adv-x="1076" d="M313,1432l0,-4l8,4C352,1430 368,1426 368,1419l8,5C382,1424 400,1414 431,1394C472,1394 536,1374 625,1335C648,1317 659,1304 659,1297C688,1291 733,1244 794,1157C842,1084 879,982 904,853l-4,0C905,839 908,829 908,824l-4,0C913,789 917,743 917,684l-5,0C912,681 914,680 917,680C914,639 897,587 866,524C866,483 832,398 765,270l-34,-29l-9,0l0,4C771,298 811,375 841,477l0,5l-5,0C804,405 783,362 773,351l4,-9l0,-4C764,331 730,285 676,199C599,117 525,76 456,76C456,73 453,72 448,72C443,75 436,76 427,76C365,38 314,17 275,13l-9,0C238,13 224,24 224,46l-21,0C190,46 172,55 148,72l-4,0C144,48 159,25 190,4l-8,-4C165,0 148,27 131,80C94,117 76,149 76,177l4,17C57,257 46,302 46,329l-4,0l0,-21C45,303 46,299 46,296l-4,0C45,293 48,271 51,232l-9,0C37,279 34,311 34,329l4,0l-4,9l0,34l-4,21l4,0C21,440 9,518 0,625C0,628 1,629 4,629l-4,22l0,92C0,781 13,821 38,862C41,914 42,946 42,959l4,0C41,968 38,977 38,984C43,984 46,987 46,993C43,993 42,994 42,997C48,997 51,1000 51,1005l-9,0l0,21l9,-4l0,13l-9,0l0,4l9,0l0,9l-9,0l0,4C43,1057 46,1060 51,1060C51,1057 52,1056 55,1056C83,1196 111,1286 139,1326C156,1349 168,1360 173,1360l-4,9l0,8C200,1402 248,1421 313,1432M279,1411l-13,0l0,-9l30,5C296,1404 297,1402 300,1402l8,13M313,1415C314,1410 316,1407 321,1407l21,4l0,4M346,1415l0,-4C349,1411 354,1410 359,1407l0,8M194,1369C200,1368 203,1365 203,1360C163,1335 135,1299 118,1250l-4,-17l0,-4l4,0C118,1234 139,1260 182,1305C209,1348 237,1369 266,1369l4,0C287,1367 296,1363 296,1356l0,-4l-5,-9C269,1345 258,1348 258,1352C253,1352 233,1339 199,1314l0,-9C241,1330 292,1343 351,1343l0,-4C354,1339 355,1340 355,1343C380,1343 426,1325 494,1288l4,0l0,5C491,1293 483,1301 473,1318C460,1318 444,1329 427,1352l-30,8l-8,0l-13,-8l-8,0C362,1352 359,1355 359,1360l0,4l4,9C332,1382 306,1386 287,1386C263,1377 250,1373 249,1373l-4,8l0,17C256,1398 262,1401 262,1407l-4,0C222,1393 201,1380 194,1369M452,1364l0,-4C458,1360 464,1359 469,1356l4,0l0,4C470,1360 466,1361 460,1364M477,1356l0,-8C514,1338 532,1328 532,1318l9,4l4,0l0,-8l8,0C534,1329 524,1339 524,1343l-9,-4C496,1350 484,1356 477,1356M131,1132l0,-4l4,0C162,1209 189,1250 215,1250C221,1247 225,1246 228,1246l0,-8C193,1221 165,1184 144,1128C127,1060 115,1022 110,1014l4,-9l-4,-8l4,-9C109,977 106,962 106,942C97,942 88,896 80,803l-8,0l0,8C80,863 84,902 84,929l0,5l-4,0l-29,-115C51,816 52,815 55,815C52,782 49,765 46,765C46,762 48,760 51,760l-5,-42l0,-135C46,580 45,579 42,579l4,-9l0,-21C46,516 49,494 55,482C44,452 38,435 38,431C69,251 94,161 114,161C117,156 118,150 118,144l9,0l0,12l4,0C131,137 142,120 165,106C160,103 155,101 152,101C152,88 175,74 220,59C267,73 291,84 291,93C273,93 230,125 161,190C136,241 123,284 123,317l0,21C126,380 133,401 144,401l4,-8l-13,-76C135,246 179,180 266,118l34,-17C303,101 315,110 338,127l4,0l0,-4l-17,-22l0,-4l21,-4l34,0l9,4l-5,21C385,124 388,127 393,127l4,0C403,127 406,123 406,114l12,0C436,127 457,142 482,161l0,4l-9,0C473,162 472,161 469,161l0,4C474,174 493,187 524,203C557,239 583,264 600,279C607,304 618,317 634,317C625,299 613,282 600,266l0,-4C617,282 631,295 642,300C659,321 667,333 667,338C729,412 781,495 824,587l-5,9C822,601 824,605 824,608l-5,9C822,625 825,629 828,629l-4,9l0,4C824,649 825,654 828,659C828,662 827,663 824,663C827,678 828,690 828,697C828,710 827,741 824,790l4,0l-4,8l0,9l8,0C835,748 836,707 836,684C836,677 835,656 832,621C860,672 874,727 874,786C852,840 841,869 841,874C842,880 844,883 849,883C855,883 861,870 866,845l8,0C868,888 841,948 794,1026l0,5C799,1031 815,1011 841,972l0,4C818,1035 797,1064 777,1064C766,1064 760,1067 760,1073l0,8C760,1087 767,1090 781,1090C699,1199 623,1265 553,1288C557,1279 577,1262 613,1238l42,-47C655,1181 661,1174 672,1170C700,1137 714,1114 714,1103C728,1103 741,1085 752,1048l0,-13C766,1035 780,1007 794,950l0,-4C787,946 783,952 781,963l-4,0l0,-4C789,885 798,846 803,841C803,824 786,781 752,714C755,709 756,704 756,701C689,544 615,420 536,329C507,298 491,283 486,283l0,8C579,393 648,495 693,596l0,4l-4,0C680,578 660,543 629,494l-8,0C621,499 649,550 705,646C728,683 755,747 786,836C786,839 784,841 781,841l5,17C772,935 749,1006 718,1069C696,1110 671,1141 642,1162l0,-9C649,1153 653,1147 655,1136C659,1136 665,1130 672,1119l0,-4l-13,0C659,1111 667,1104 684,1094C698,1073 705,1058 705,1048C703,1048 695,1056 680,1073C705,1009 718,971 718,959l0,-4l-8,0C710,970 699,1001 676,1048l4,8C675,1057 660,1084 634,1136C617,1169 595,1196 570,1217l0,-5l9,-12l0,-5l-5,0C521,1252 475,1286 435,1297C396,1302 376,1312 376,1326C370,1326 354,1328 329,1331C254,1331 200,1304 165,1250C153,1221 142,1182 131,1132M579,1326C597,1313 608,1300 613,1288l4,0C617,1291 618,1293 621,1293C621,1288 642,1271 684,1242C684,1234 700,1217 731,1191l4,0C662,1276 610,1321 579,1326M507,1284C507,1280 511,1276 520,1271l4,0l0,5C518,1276 515,1279 515,1284M558,1263C558,1258 575,1242 608,1217l5,0C602,1230 584,1245 558,1263M127,1217l0,-5C130,1212 134,1211 139,1208l13,42C149,1250 140,1239 127,1217M131,1204C108,1175 95,1146 93,1115C76,1115 68,1067 68,972C64,972 61,954 59,917l0,-5l4,0C68,933 79,959 97,988C111,1053 124,1123 135,1200l0,4M182,1195l21,0C208,1194 211,1192 211,1187C180,1154 165,1128 165,1107C154,1062 144,1004 135,934l-8,0C146,1105 164,1191 182,1191M583,1187C588,1186 591,1184 591,1179l0,-5C586,1174 583,1177 583,1183M596,1170C600,1170 604,1166 608,1157l0,-4l-8,0M55,1141l4,0l0,-9C57,1093 53,1073 46,1073l-4,0l0,4M773,1128l0,-9l17,0C790,1125 787,1128 781,1128M803,1081l0,-4C808,1077 811,1080 811,1086l0,4C806,1089 803,1086 803,1081M815,1077l0,-4C818,1068 819,1063 819,1060l5,0l0,4C821,1070 819,1074 819,1077M769,1060l4,0C778,1060 783,1054 790,1043l0,-4l-4,0C782,1039 776,1046 769,1060M705,1039l5,0C719,1035 728,1017 735,984l0,-4l-30,46M769,988l0,-4C772,979 773,974 773,967l4,0l0,9C774,981 773,985 773,988M743,959l9,0l0,-13C746,946 743,949 743,955M456,942C483,942 504,929 520,904l8,4l8,0C567,857 589,826 604,815l13,-42l0,-4l-9,0l0,12l-8,0C605,735 608,706 608,693l-4,-21l-8,0l0,4C596,679 597,680 600,680l-4,9l0,38C596,730 593,746 587,773l-4,0C583,742 580,708 574,672l5,-21C570,638 559,610 545,566l-4,0l0,25l-5,0C525,563 489,549 427,549C398,549 369,574 342,625C342,616 341,590 338,545C338,508 352,478 380,456l0,-4l-17,0C338,465 325,500 325,558l0,21C325,593 329,615 338,646C326,646 315,680 304,748C304,791 317,822 342,841l21,0C363,851 372,858 389,862l0,8l-21,0C363,870 359,874 355,883C358,894 363,900 372,900C381,895 393,891 410,887C410,892 414,899 422,908C417,908 414,911 414,917l0,4C420,935 434,942 456,942M718,942C729,942 736,921 739,879C734,879 728,893 722,921C725,921 727,922 727,925C721,925 718,928 718,934M794,938C801,938 810,917 819,874l-4,0C824,858 828,841 828,824l-9,0M444,912l38,0C482,918 479,921 473,921l-21,0C447,920 444,917 444,912M127,921l8,0l0,-4l-4,-21l-8,0l0,4M456,896l0,-9C493,882 513,879 515,879C514,886 501,893 477,900C472,897 465,896 456,896M101,879l5,0l0,-21C100,858 97,861 97,866C100,871 101,876 101,879M359,777l4,-8C361,758 358,752 355,752C355,693 376,641 418,596l17,0C482,636 517,710 541,819C536,853 514,870 473,870C462,870 456,871 456,874C423,874 401,860 389,832C381,832 371,814 359,777M123,874l8,0l0,-4C128,845 127,831 127,828l-9,0l0,17M549,841C555,818 558,795 558,773C555,744 553,727 553,722l-4,0l-8,5l4,21l0,8l-4,0C541,740 518,689 473,604l9,0l0,-4l-5,-9l17,0l0,-4C480,585 473,581 473,574l4,0C536,616 566,653 566,684l0,55l4,26l-17,76M30,815C15,778 8,738 8,693C11,663 13,631 13,596l4,-22l-4,0C18,554 22,522 25,477C22,477 21,476 21,473l9,-4l4,0l-4,8C30,480 31,482 34,482l-4,8l0,21C30,514 31,515 34,515C34,518 33,520 30,520l4,21l-4,21l4,8l-4,26l0,4C30,606 31,612 34,617l-4,8C33,650 35,663 38,663C36,674 33,680 30,680C33,705 35,750 38,815M118,803l9,0l0,-43l-9,0l-4,21M325,794C325,791 324,787 321,781l0,-4l4,0C325,780 326,785 329,790l0,4M72,786l8,0l-4,-30l0,-29l-8,0l0,25C68,755 69,756 72,756C72,759 71,760 68,760M786,786l8,0l0,-21l-8,0M786,752C791,751 794,748 794,743l0,-16l-8,0M414,748l13,0l0,-9C410,719 401,704 401,693C401,682 408,670 422,655C422,649 419,646 414,646C394,655 384,667 384,684l0,13C384,712 394,729 414,748M781,718l9,0l0,-4l-4,-38l-9,0l0,4C777,683 778,684 781,684C781,687 780,689 777,689C780,700 781,709 781,718M68,697l8,0l0,-13l-8,0M114,697l9,0l0,-110l-9,0M68,676l8,0l0,-17l-8,0M63,617l9,0l0,-17l-4,0M845,608C825,562 815,524 815,494l0,-4l4,0C839,541 849,579 849,604l0,4M811,591l0,-4C811,582 808,579 803,579l0,4C804,588 806,591 811,591M114,574l9,0l0,-4C120,565 118,561 118,558l-4,0M541,566l0,-13C517,503 492,474 465,465l-21,0C429,465 417,472 410,486l0,12C421,487 435,480 452,477C477,477 505,507 536,566M63,545l9,0l0,-25l-4,0l-5,21M807,532C804,514 780,472 735,406l0,-5l4,0C744,411 767,442 807,494C807,506 808,517 811,528l0,4M760,511l0,-8C757,491 750,482 739,477l0,9C743,497 750,506 760,511M63,490l9,0l4,-59l-8,0l0,29M617,490l4,0l0,-4C599,453 551,391 477,300l-8,0l0,8C478,315 527,375 617,490M781,439l0,-4l5,0C786,440 789,445 794,452l0,4C790,456 786,450 781,439M722,456l5,0l0,-4C714,425 701,408 689,401l-5,0l0,5C684,413 690,417 701,418l-4,9C709,446 717,456 722,456M51,452l8,0l0,-8C65,417 68,397 68,384l4,0l0,13l8,0C80,376 83,345 89,304l-9,0C80,326 73,353 59,384C59,396 56,412 51,431M110,439l8,0l0,-21l-8,0M710,338l-5,0l0,13C701,347 694,333 684,308C656,295 642,278 642,258l4,0C677,288 719,341 773,418l0,4C748,394 732,380 727,380C727,371 721,357 710,338M680,397l9,0l0,-4C659,348 642,325 638,325l-4,0C641,340 656,364 680,397M110,393l8,0l0,-42l-8,0M710,372l-5,-9l0,-4l5,0C710,362 711,367 714,372M760,363C730,311 672,252 587,186C556,161 530,142 507,131l-47,-38l9,0C502,93 554,118 625,169C682,234 723,291 748,338C751,338 756,346 765,363M110,342l8,0l0,-34l-8,0M118,211l9,0l0,-29l-9,0M97,156l0,-4C107,133 114,123 118,123l0,8C108,148 101,156 97,156M270,63l0,-8l26,4C293,64 291,70 291,76C282,67 275,63 270,63M249,42C252,34 260,30 275,30C300,35 316,38 321,38C321,43 318,46 313,46C277,43 256,42 249,42z"/>
<glyph unicode="e" horiz-adv-x="1047" d="M508,1432l0,-4l9,4C588,1432 673,1411 770,1369C789,1353 823,1337 872,1322C917,1295 939,1250 939,1187l-34,-114l0,-4l5,0C910,1077 915,1081 926,1081C923,1071 903,1047 867,1010C812,937 765,900 724,900l-43,21l-198,-34C451,887 421,897 394,917l0,-89l-8,0l-9,30l0,33C377,907 380,928 386,955l-30,0C352,955 348,959 344,967l0,5C345,977 347,980 352,980C358,980 372,976 394,967C394,982 405,995 428,1005l0,5l-4,0C405,1001 389,997 377,997l-8,0C365,997 361,1001 356,1010C356,1023 408,1031 512,1035l64,0C579,1035 580,1034 580,1031C585,1034 590,1035 593,1035l8,-4l9,4C615,1032 619,1031 622,1031C628,1034 632,1035 635,1035l0,-4l8,4l5,0C651,1035 652,1034 652,1031C696,1039 731,1049 757,1060l9,-12C745,1037 709,1025 660,1014l0,4l-8,-4l-68,0C581,1014 580,1015 580,1018C577,1018 576,1017 576,1014l-30,4l-34,0C497,1018 474,1017 441,1014l0,-9l8,0l0,-8C432,986 424,979 424,976C424,963 480,949 593,934l0,-5C604,929 632,935 677,946l0,4C606,959 544,978 491,1005l0,5l13,0C534,999 571,987 614,976l0,4l-4,21l12,9C638,987 649,976 656,976C663,976 668,975 673,972C728,972 792,1038 863,1170C868,1167 873,1166 876,1166C876,1169 875,1170 872,1170C875,1175 876,1180 876,1183C876,1232 842,1274 774,1309l0,-4C799,1305 822,1260 842,1170l-8,-4C807,1270 760,1322 694,1322l13,-17l-13,-8C664,1311 643,1318 631,1318C612,1312 600,1309 593,1309C587,1309 584,1312 584,1318l9,13C580,1331 566,1335 551,1343l-9,-4C539,1339 538,1340 538,1343C535,1343 534,1342 534,1339l-51,9C438,1348 396,1327 356,1284C367,1284 373,1281 373,1276l0,-5l-34,0C230,1172 175,1090 175,1026C179,1026 186,1015 196,993C193,993 191,991 191,988C176,988 165,1008 158,1048C163,1087 218,1163 322,1276C283,1276 245,1249 208,1195C211,1190 213,1186 213,1183C154,1108 124,998 124,853C135,845 147,841 162,841l34,0l0,-9l-9,4C187,831 184,828 179,828C155,828 137,831 124,836l0,-21l4,-21l-4,0C130,757 134,739 137,739C179,722 207,714 221,714l0,-9C194,705 153,716 99,739C99,731 100,727 103,727l-4,-22l0,-76C99,614 97,594 94,570C94,567 96,566 99,566l-5,-17C97,515 99,490 99,473l-9,-4l-4,0l0,13C86,485 87,486 90,486l-4,8l0,55l4,9C81,561 77,569 77,583l0,38C77,626 74,629 69,629l0,-4l4,-17l-4,-21C69,584 70,583 73,583l-4,-21l0,-26C69,530 70,525 73,520C73,517 72,515 69,515l8,-118l-8,0l-4,17l4,0C66,419 65,426 65,435l-9,0l5,-8l0,-13C61,338 83,268 128,203l0,4l-8,13l0,17C120,241 124,245 132,249C146,200 173,163 213,139C246,114 291,101 348,101C353,104 357,106 360,106l0,-5l51,9l9,-4C434,114 445,118 453,118l5,0l0,-4C458,105 438,95 398,84l0,-8l22,0l42,4l0,-4C489,81 536,106 601,152l13,0C602,135 575,113 534,84C537,84 538,83 538,80C445,47 388,30 365,30l0,-5C391,20 412,17 428,17C502,17 567,35 622,72C649,78 686,102 732,144C763,153 779,184 779,237C775,237 766,257 753,296C709,341 653,363 584,363l-21,-4l0,4l-8,-4l-4,0C542,359 538,360 538,363C502,358 481,355 474,355C449,358 436,362 436,368l0,4l5,8C469,377 490,376 504,376l89,0C622,376 651,372 681,363l-46,30l-8,-4l-5,0C613,394 597,401 572,410C569,410 567,409 567,406l-21,4C477,396 438,389 428,389C395,394 375,397 369,397C369,389 383,383 411,380l0,-4C411,369 404,365 390,363l0,5l-8,-5C364,363 348,383 335,422C316,440 306,458 306,477l-34,0C235,477 202,498 175,541l0,4C175,549 179,553 187,558C215,513 252,490 297,490l13,0C313,490 320,498 331,515l-25,30C307,550 309,553 314,553l8,0C345,531 359,520 365,520C370,523 375,524 382,524C397,513 412,507 428,507C431,507 442,508 462,511l0,4C424,515 373,532 310,566C296,582 289,596 289,608C290,614 292,617 297,617l13,0C315,580 335,562 369,562l29,0l22,4l0,-4l118,38l4,-9C488,560 440,545 398,545l0,-4C428,535 448,532 458,532l4,0C495,532 541,557 601,608C606,611 611,613 614,613l4,-9l0,-4C595,577 579,566 572,566l0,-4l4,0C581,565 586,566 589,566l0,-8C538,513 485,490 428,490l-21,0l-30,4C377,461 397,437 436,422C461,422 487,431 512,448l30,-4C547,447 552,448 559,448l-4,8C555,462 563,466 580,469C651,460 710,443 757,418C816,376 846,327 846,270C860,267 867,263 867,258l0,-9l-29,0C833,207 811,159 774,106C714,49 669,21 639,21C625,25 618,29 618,34l0,4l4,0C647,41 663,42 669,42l0,9C660,51 656,54 656,59C691,59 712,72 719,97C725,97 728,100 728,106l0,4l-76,-51l-9,4C623,46 589,32 542,21C542,18 541,17 538,17l0,4C524,16 506,10 483,4l0,4C468,3 452,0 436,0l-143,21l-34,0l-93,34C134,61 100,88 65,135C29,200 9,260 6,317l0,17l8,12l-13,26l0,12C7,384 17,370 31,342l0,-13C25,322 22,317 22,313C22,256 48,190 99,114C148,77 186,59 213,59C195,81 184,97 179,106C182,111 183,116 183,123C132,169 107,197 107,207l-4,0l0,-4C117,170 124,152 124,148l-9,0C110,150 96,184 73,249C45,286 31,311 31,325l4,0C40,324 48,310 61,283l4,0l0,8C36,390 22,467 22,520l5,0C24,525 22,529 22,532C28,634 38,706 52,748l-4,8l4,30C35,808 27,826 27,841l12,8C47,829 53,819 56,819C56,826 59,848 65,883C62,888 61,893 61,900l-5,0C-3,821 -38,748 -49,680l-9,0l0,4C-58,729 -21,806 52,917l-8,46C51,1044 77,1117 120,1183C141,1199 164,1231 191,1280C193,1280 228,1305 297,1356C352,1395 390,1415 411,1415C411,1420 418,1424 432,1428l17,-4C456,1424 475,1427 508,1432M382,1373l4,0l135,29l0,-4C552,1401 567,1405 567,1411C561,1411 546,1412 521,1415l-9,-4l-8,4C454,1410 413,1397 382,1377M546,1386l0,-9l21,0l26,-4C598,1376 602,1377 605,1377C611,1370 614,1365 614,1360C623,1363 627,1366 627,1369C671,1369 714,1358 757,1335l5,0l0,4C721,1370 685,1385 656,1386C650,1386 644,1384 639,1381C624,1384 611,1386 601,1386l-21,0l-29,-5C551,1384 549,1386 546,1386M436,1369l0,-5l13,0C455,1364 458,1367 458,1373l-9,0C444,1370 439,1369 436,1369M483,1360l4,0C490,1360 491,1361 491,1364l26,-4l17,0l0,4l-43,5C486,1368 483,1365 483,1360M627,1352l0,-4C635,1348 649,1345 669,1339l34,0l0,4C664,1349 643,1352 639,1352M339,1343l0,-4l43,0l0,4M306,1284C331,1284 355,1297 377,1322l5,0l0,9C334,1316 310,1304 310,1297C307,1292 306,1287 306,1284M779,1331l0,-9l21,-4l4,0l0,4C799,1322 791,1325 779,1331M846,1314C862,1297 878,1278 893,1259l0,-9l-5,0C881,1250 877,1256 876,1267l-4,0l0,-12C900,1216 914,1189 914,1174l4,0C918,1183 919,1187 922,1187l-4,8C918,1198 919,1200 922,1200C920,1259 895,1297 846,1314M196,1225l0,-4C200,1221 224,1239 267,1276C272,1279 278,1280 284,1280l0,8l-4,0C235,1263 207,1242 196,1225M162,1191C162,1186 159,1179 153,1170l0,-4l5,0C158,1171 161,1178 166,1187l0,4M893,1187C893,1182 891,1179 888,1179C888,1176 890,1174 893,1174C879,1115 869,1081 863,1073l4,0C882,1093 894,1114 905,1136C900,1163 897,1180 897,1187M82,1060l0,-4l8,-13l0,-17l-8,0C76,1026 73,1030 73,1039l-4,0C64,1001 61,977 61,967l0,-25C62,937 64,934 69,934l63,223l0,5C101,1129 85,1095 82,1060M867,1157C867,1138 839,1091 783,1014l8,0C834,1034 855,1059 855,1090C859,1090 865,1110 872,1149l0,8M952,1119l8,0C947,1097 939,1086 935,1086l-4,0l0,8C940,1111 947,1119 952,1119M884,1077C871,1044 822,1008 736,967C736,964 735,960 732,955l9,0C831,996 876,1031 876,1060C884,1060 888,1064 888,1073l0,4M120,1060l-17,-76l0,-4l4,0l17,72l0,8M715,925C721,925 724,924 724,921C757,921 789,941 821,980l-4,0C791,961 757,944 715,929M99,959l-9,-63l0,-5l4,0C94,896 98,918 107,959M403,950l-5,-8l0,-4C405,938 420,929 441,912l42,-8l51,8l0,5C511,917 468,928 403,950M407,891l4,0C468,886 509,877 534,866C537,866 538,867 538,870C588,863 626,847 652,824C671,793 681,764 681,735l0,-42C681,645 650,586 589,515C563,498 546,490 538,490l0,4C575,521 610,561 643,613C652,644 658,659 660,659C660,714 642,752 605,773C560,790 525,798 500,798C488,798 456,791 403,777l-9,17l4,9C395,808 394,813 394,819C399,819 404,835 411,866C414,866 415,867 415,870C410,870 407,873 407,879M420,870C423,865 424,861 424,858C428,858 432,862 436,870M504,849C555,821 584,807 593,807C598,797 607,790 618,786C591,828 554,849 508,849M86,845C86,836 85,826 82,815C87,815 90,819 90,828l0,17M420,841l0,-22l21,-8l25,4l0,-4l8,4l51,0l0,4l-63,17C462,831 458,828 449,828C442,828 432,832 420,841M107,836l0,-4C107,821 106,795 103,756C112,751 119,748 124,748l0,4C118,786 115,813 115,832l0,4M618,819C645,774 661,752 665,752l0,4C665,774 651,795 622,819M82,811l0,-21l4,0l0,21M82,756C82,731 80,718 77,718l5,-8l0,-55l8,0C90,658 89,659 86,659l4,30l0,38l-4,29M56,705l0,-16C62,689 65,692 65,697l0,17C59,713 56,710 56,705M56,684l-4,-50l0,-89l4,0C57,568 60,579 65,579l-4,8l0,30C61,620 62,621 65,621C62,626 61,631 61,634C64,659 65,674 65,680M-58,672l4,0l0,-34C-54,635 -55,634 -58,634l4,-9l0,-4l-8,0l0,30M39,629C36,596 35,573 35,558l0,-30C35,513 36,489 39,456l5,0C44,462 45,465 48,465l-4,8l0,156M-58,570l9,0l0,-21l-9,0M52,541l0,-13C53,523 56,520 61,520l0,21M-54,528l9,0l0,-13C-51,515 -54,518 -54,524M56,515l0,-17l5,0l0,17M348,503l-4,-9C347,494 348,493 348,490C341,485 335,482 331,482l0,-13l4,-21C346,465 353,473 356,473l9,-4l0,4C358,493 353,503 348,503M52,494C55,485 56,466 56,439l5,0l0,55M534,490l0,-4C534,480 531,477 525,477l-8,0l0,9C518,486 524,487 534,490M-37,477l9,0C-28,470 -22,454 -11,427l-5,0C-30,438 -37,455 -37,477M360,465l0,-38C376,418 387,414 394,414l0,4C375,441 365,456 365,465M276,465C280,465 287,431 297,363C319,326 349,308 386,308l131,26l0,-5l8,5l13,0l0,-9C467,306 415,294 382,291l0,5l-9,-5C370,291 369,293 369,296l-9,-5C307,291 276,346 267,456C268,462 271,465 276,465M94,460l5,-8l0,-13l-5,0C89,439 86,442 86,448l0,4C87,457 89,460 94,460M39,452C42,447 44,442 44,439l4,0l0,13M631,435l0,-4C650,431 664,428 673,422l4,0l0,5l-25,8M686,422l0,-4C691,418 698,415 707,410l0,8C700,418 695,419 690,422M589,418l0,-4C642,414 703,379 770,308C770,298 777,284 791,266l0,4C791,336 773,380 736,401C736,398 735,397 732,397C732,403 725,409 711,414l0,-8l8,0l0,-9l-4,0C665,411 633,418 618,418M791,368l0,-5C797,356 803,335 808,300C817,303 821,305 821,308C821,315 813,335 796,368M804,258l-17,-76C790,182 795,180 800,177C811,198 817,224 817,253C814,253 809,255 804,258M749,101l8,0l43,72l-4,0C770,145 754,121 749,101M204,106l0,-9C219,78 233,66 246,59l9,0C270,59 282,63 293,72l8,0C304,72 306,71 306,68C311,71 316,72 322,72l0,4C299,81 281,87 267,93C262,90 258,89 255,89M310,55l0,-9l21,-4C340,42 363,48 398,59l0,4C387,63 371,65 352,68C335,59 321,55 310,55z"/>
<glyph unicode="h" horiz-adv-x="1317" d="M952,1435l9,-5l9,5C1006,1421 1024,1410 1024,1403l0,-13l-4,0C1006,1411 976,1421 929,1421l41,-31C971,1396 974,1399 979,1399l14,0C1032,1368 1059,1329 1074,1281C1074,1278 1075,1277 1078,1277l-13,90l13,9C1084,1369 1087,1363 1087,1358l36,-347l-4,-9C1119,999 1120,997 1123,997l-4,-18C1128,896 1132,808 1132,717C1132,714 1134,710 1137,704l-5,-27l0,-36C1132,566 1129,528 1123,528C1123,525 1125,523 1128,523l-59,-293l-9,0C1060,233 1063,245 1069,266l0,18l-4,0C1036,152 1012,86 993,86l-5,0C986,86 982,90 975,99C929,66 902,50 893,50l-4,0C872,50 845,60 808,81C802,78 797,77 794,77C779,98 772,112 772,117l-28,0C719,117 692,180 663,307l0,13l-4,0l0,-27l4,-22l-4,0l-14,9C642,345 641,393 641,424l0,90C647,558 650,582 650,587l-5,0C640,587 627,584 605,578l0,-5l22,5l14,0l0,-5C641,565 605,557 532,550l-22,0l-9,-45C516,502 523,499 523,496C548,505 561,510 564,510l0,-5C589,514 606,519 614,519l0,-5C607,503 567,488 496,469C478,355 459,260 438,185l-9,0l0,5C429,193 430,194 433,194C433,197 432,199 429,199C429,202 433,220 442,253l0,27l-9,0C420,228 390,160 343,77C308,26 273,0 239,0C222,0 207,12 194,36l0,9C195,51 198,54 203,54C224,30 236,18 239,18C299,18 361,110 424,293l9,0l0,-9l9,0l0,5l-9,13C445,338 456,395 465,474C474,495 482,505 487,505l-4,23C483,543 489,550 501,550l0,5C486,555 477,567 474,591C486,597 496,600 505,600C505,596 510,592 519,587l31,0C561,587 587,590 627,596l0,-5C642,592 654,601 663,618l9,0l0,-4C672,601 669,587 663,573C672,573 677,567 677,555C665,536 659,504 659,460l0,-4C676,257 709,148 758,131l0,4C713,202 690,260 690,307C690,354 705,386 735,402l5,0l9,-5C740,372 735,350 735,329l0,-18C735,308 734,307 731,307l18,-81l4,0C753,270 755,295 758,302l14,0l0,-22C772,277 770,275 767,275C767,272 769,271 772,271C772,268 770,263 767,257C767,194 782,143 812,104l14,0C817,124 812,145 812,167l0,9C813,182 816,185 821,185C826,185 832,164 839,122C847,102 856,90 866,86l14,0C886,86 889,90 889,99C874,124 866,141 866,149l0,18l14,0C884,147 894,126 911,104C943,116 976,172 1011,271C1011,287 1020,335 1038,415C1035,431 1033,440 1033,442C1063,571 1078,649 1078,677l-9,-5l-4,0l27,113l-5,9l5,27l-5,9l9,36C1093,873 1090,888 1087,911l5,9C1092,927 1089,950 1083,988l4,0C1061,1145 1040,1223 1024,1223C1024,1264 1002,1302 957,1336C947,1342 938,1345 929,1345l-9,0C889,1345 851,1321 808,1272C802,1272 799,1275 799,1281l0,5C824,1317 852,1339 884,1354C884,1365 901,1374 934,1381l0,4l-36,0C876,1385 855,1375 835,1354C832,1354 830,1355 830,1358C812,1351 797,1336 785,1313l0,-5l72,50l9,0C802,1310 768,1271 763,1241C766,1236 767,1230 767,1223C762,1223 758,1212 753,1191C753,1188 755,1187 758,1187C752,1126 749,1071 749,1024l-5,0C744,1021 746,1020 749,1020l-5,-23C744,913 740,871 731,871l4,-9C732,850 731,839 731,830C722,833 717,842 717,857l0,18C711,875 708,877 708,880C714,888 719,909 722,943C710,1007 704,1063 704,1110l-5,0C678,929 668,824 668,794l0,-9C668,782 666,781 663,781C663,778 665,776 668,776l-5,-23l0,-49l-4,0C653,704 650,707 650,713l0,9C650,725 651,726 654,726l-4,9l0,9C650,751 651,758 654,763C654,766 653,767 650,767l27,257l-5,23l5,9C677,1059 675,1060 672,1060C672,1174 692,1267 731,1340C755,1347 767,1359 767,1376C798,1412 839,1430 889,1430l9,-4C913,1432 931,1435 952,1435M374,1421l73,-63C447,1370 450,1376 456,1376C469,1354 485,1307 505,1236C502,1236 501,1235 501,1232C507,1232 510,1227 510,1218C510,1206 507,1187 501,1160C504,1154 505,1149 505,1146l-4,0l4,-9l0,-32C505,1102 504,1101 501,1101l4,-9l0,-18C505,1071 504,1069 501,1069l4,-9l0,-22l-4,-27C501,1008 502,1006 505,1006C502,994 499,961 496,907C504,907 515,902 528,893l45,0l0,-9l-32,-4l-27,0l-22,4l0,-13C509,868 521,866 528,866C547,866 588,872 650,884C650,868 617,855 550,844l-18,0C529,844 528,845 528,848l-9,-4l-32,0C487,833 484,802 478,749l-4,0C468,749 465,752 465,758C468,803 472,832 478,844C463,846 456,850 456,857l0,14C457,877 460,880 465,880l22,0l0,4l-18,23C469,914 475,919 487,920l0,23C487,946 489,948 492,948C489,953 487,958 487,961C487,1002 490,1046 496,1092l-9,27C487,1122 489,1123 492,1123C483,1260 459,1338 420,1358C420,1363 405,1376 374,1399C366,1384 354,1376 338,1376C338,1381 332,1387 320,1394l-22,0C256,1394 208,1338 153,1227C153,1221 146,1200 131,1164l0,-9l9,0C151,1188 170,1213 199,1232l9,0l0,-5C139,1147 104,1063 104,975C101,975 99,973 99,970C99,967 101,966 104,966C100,933 97,914 95,907C98,902 99,896 99,889l0,-5C99,878 96,875 90,875C90,878 89,880 86,880C80,851 77,810 77,758l0,-5C77,750 75,749 72,749C72,746 74,744 77,744l-9,-94l9,-77l13,0l-4,45l4,0l-4,9l0,32C86,662 87,663 90,663l-4,9l0,32C86,707 87,708 90,708l-4,9l0,64C86,791 84,798 81,803l5,27l0,36l9,0l0,-58C95,805 93,803 90,803l5,-9l0,-18C95,773 93,772 90,772l5,-9l0,-109C95,651 93,650 90,650C96,637 99,613 99,578l0,-9C93,569 90,567 90,564C89,531 86,514 81,514C84,477 92,437 104,393l4,0l0,13C99,426 95,473 95,546l0,4l9,0l0,-4C104,543 102,541 99,541l9,-54C108,484 107,483 104,483C122,332 141,257 162,257C194,209 229,185 266,185l32,0C311,185 332,191 361,203l4,-9C333,179 302,171 271,171C226,171 182,200 140,257C140,254 138,253 135,253C99,357 81,423 81,451l-4,0l0,-27l4,-9l-4,-9C94,267 119,178 153,140C165,122 185,107 212,95l14,0C269,95 314,122 361,176l4,-9C323,107 274,77 217,77l-5,0l-90,22C100,114 68,201 27,361l5,0C21,361 11,439 0,596l5,0l-5,9l0,13C0,621 2,623 5,623C5,626 3,627 0,627C24,752 36,821 36,835C36,888 69,1028 135,1254C186,1363 249,1417 325,1417C346,1420 362,1421 374,1421M803,1376l5,0C813,1376 837,1384 880,1399l0,4l-18,0C836,1403 816,1394 803,1376M997,1363l0,-5C1000,1358 1014,1343 1038,1313C1032,1334 1018,1351 997,1363M334,1354C356,1354 394,1328 447,1277l18,-154l-5,-9C463,1109 465,1104 465,1101l-5,-23C460,1075 462,1074 465,1074l-5,-32l0,-31C460,1008 459,1006 456,1006C456,1003 457,1002 460,1002C457,970 453,943 447,920l4,-9C445,898 441,879 438,853l-5,0l-4,31C437,884 444,956 451,1101C451,1201 436,1261 406,1281C381,1314 355,1331 329,1331l-9,0C291,1316 272,1292 262,1259C252,1226 244,1209 239,1209C239,1206 241,1205 244,1205C235,1171 230,1151 230,1146l-9,0l0,5C226,1208 250,1272 293,1345M731,1236l0,-4C737,1232 740,1235 740,1241l0,4C734,1244 731,1241 731,1236M704,1223C704,1217 701,1199 695,1169l0,-9l4,0C699,1165 702,1182 708,1209l0,14M731,1178l-14,-68l5,-9l0,-14C722,1084 720,1083 717,1083C720,1078 722,1070 722,1060l4,0C726,1095 728,1119 731,1132l-5,10l9,31l0,5M1083,1146l0,-9C1083,1122 1087,1091 1096,1042l5,0l0,5l-14,99M212,1123l9,-4C212,1070 208,1039 208,1024l-14,0C200,1070 206,1103 212,1123M68,948C62,917 54,862 45,785l9,0l18,158l0,5M1101,934l0,-50l4,0l0,50M185,907C185,904 187,902 190,902l-5,-9l0,-36l-9,0l0,41C177,904 180,907 185,907M1114,835l0,-32l5,0l0,32M162,767C168,766 171,763 171,758l0,-9l-9,0M1105,763C1078,537 1059,404 1047,365l-9,0l0,-9l-5,-27l0,-4l5,0C1051,365 1069,410 1092,460C1110,539 1119,606 1119,663l0,5l-5,45l5,0C1113,729 1110,746 1110,763M45,758l-4,-23C41,732 42,731 45,731l-4,-23l0,-36l4,0C45,687 47,695 50,695C50,698 48,699 45,699l5,23l0,36M158,740l9,0l0,-23l-9,0M23,690C17,643 14,611 14,596l0,-32C14,557 15,551 18,546C18,543 17,541 14,541C20,482 26,434 32,397l9,5l-5,9l0,9C36,423 38,424 41,424l-5,9C36,473 33,514 27,555l5,9C29,580 27,594 27,605l0,18C27,626 29,627 32,627l-5,9C27,639 29,641 32,641C29,652 27,668 27,690M63,569C57,478 54,430 54,424C57,408 59,395 59,384l9,0l-5,9l0,40C63,440 65,446 68,451C65,456 63,462 63,469l0,5C63,477 65,478 68,478C68,481 66,483 63,483l9,72C69,561 68,566 68,569M149,559l4,0C158,559 167,516 180,429l-4,0C165,429 156,468 149,546M180,411C195,366 205,338 212,329l0,-22C207,307 193,340 171,406M59,374C62,369 63,363 63,356l5,0l0,23M63,352l5,-27l4,0l0,27M708,329l0,-40l5,0l0,40M713,280l0,-23l4,0l0,23M135,248l9,0l18,-77C152,171 143,188 135,221l5,0l-5,9M86,230l0,-4C95,211 99,200 99,194l5,0l0,5C101,220 96,230 90,230M99,171l0,-13C118,126 136,108 153,104l0,9C120,135 104,154 104,171M979,108l0,-4l5,0l31,58l0,5C1013,167 1001,147 979,108M420,167l9,0l0,-5l-9,-31l-9,0l0,18C417,156 420,162 420,167z"/>
<glyph unicode="i" horiz-adv-x="719" d="M418,1449C463,1423 497,1360 520,1259l10,-77l-10,0C507,1268 484,1336 452,1386l-48,48l0,5C404,1446 409,1449 418,1449M258,1434l14,0l34,-9l25,5l19,-10C357,1423 362,1425 365,1425C384,1422 394,1417 394,1410l10,5l4,0C439,1415 468,1336 496,1177C499,1164 503,1130 506,1075l-5,-10C504,1059 506,1052 506,1045l0,-14l-10,0C496,1127 477,1229 438,1337l-20,24C434,1319 455,1235 481,1109l-4,0C477,1105 493,1027 525,875C532,788 535,741 535,734l-5,0l5,-9l0,-49C535,673 533,671 530,671C530,668 532,666 535,666C513,428 482,274 442,204C423,136 407,99 394,92l-5,0C382,92 379,95 379,102C382,102 391,110 404,126C401,132 399,139 399,146C333,71 292,34 277,34C266,11 248,0 224,0C197,0 169,13 141,39C133,40 112,72 78,136C52,191 28,284 5,413C5,416 7,418 10,418C3,443 0,465 0,486l5,0C2,493 0,498 0,501l5,19C5,523 3,525 0,525C13,611 24,674 34,715C34,718 32,720 29,720C32,763 34,796 34,817l0,146C34,966 36,968 39,968l-5,9l0,15C34,995 36,997 39,997C39,1000 37,1002 34,1002l78,340C135,1380 156,1406 175,1420l15,0l9,-5C199,1408 181,1392 146,1366l-24,-58l0,-5l4,0C151,1371 186,1405 229,1405C229,1410 239,1419 258,1434M214,1366l5,0C219,1371 225,1376 238,1381C245,1378 250,1376 253,1376C196,1320 162,1250 151,1167l0,-5l-10,0C148,1213 159,1261 175,1308C146,1262 131,1226 131,1201l-9,0C122,1217 125,1225 131,1225C128,1232 126,1237 126,1240C133,1251 136,1260 136,1269l0,5l-5,0C115,1220 107,1184 107,1167l10,5l5,0l0,-5C122,1144 119,1133 112,1133C112,1130 114,1128 117,1128C110,1104 107,1089 107,1084l-10,5l-5,-29l10,0C95,992 92,914 92,827l0,-20l-4,0l-10,5l0,-58l-10,0l0,126l5,0l10,-5l5,10l-10,5C78,887 76,885 73,885C73,888 71,890 68,890l-19,-117C52,766 55,752 58,729l-5,0C56,720 60,715 63,715l-5,-25l0,-43l-9,0l0,-49C49,595 47,593 44,593l9,-34l-4,-10C52,543 53,538 53,535l-4,0C55,520 58,504 58,486l-5,0C56,486 60,460 63,408l5,0C71,421 73,433 73,442l5,0l5,-24l0,-53C83,358 81,351 78,345C91,230 112,148 141,97C154,74 164,63 170,63l20,0l14,10l5,-10C196,50 183,44 170,44l0,-5C192,36 203,31 204,24l10,5C217,29 219,27 219,24C248,31 263,38 263,44C254,60 248,68 243,68C224,68 195,89 156,131C139,154 124,225 112,345C106,365 98,446 88,588l0,132l9,0l0,5C112,848 130,909 151,909l9,-5C121,827 102,737 102,632l0,-5C102,570 112,502 131,423C122,423 116,436 112,462l-5,0l15,-136l4,0C128,345 133,355 141,355l10,0C144,322 141,293 141,267l5,-34l-5,0C169,133 216,83 282,83l15,0C316,101 341,137 370,190C377,219 384,233 389,233l-5,10C394,307 404,351 413,374l10,0l-10,-48l0,-5l5,0C431,387 444,427 457,442C454,449 452,454 452,457l10,5l-5,10C457,475 459,477 462,477l-5,9C467,527 472,557 472,574l9,0C472,477 457,389 438,311l0,-5l4,0l54,224C496,533 498,535 501,535l-5,10C512,602 520,637 520,652l-5,9C518,668 520,673 520,676C517,682 515,687 515,690l5,0C517,697 515,702 515,705l5,20l-5,9l5,20C514,778 511,791 511,793l4,0l-4,9l0,10C511,815 512,817 515,817l-4,10l4,9C509,853 506,864 506,870l-5,0C498,832 496,805 496,788l0,-44l5,-10l-15,0l0,54C486,814 488,835 491,851C488,871 486,894 486,919l0,34C486,957 483,975 477,1007l-5,0l-10,-5C462,1015 459,1021 452,1021l5,24l-19,98C441,1160 442,1175 442,1186C423,1245 403,1297 384,1342l-10,0C394,1285 404,1252 404,1245l-15,0C363,1352 326,1405 277,1405l0,5C246,1401 225,1386 214,1366M525,1157l10,0l0,-14l-10,0M73,1041l-5,-34l-10,0l0,9l-5,0C47,953 44,913 44,895l0,-20l5,0C49,904 57,930 73,953C76,978 78,1004 78,1031l0,10M525,1007l10,0l0,-25C535,979 533,977 530,977l5,-9l0,-5C535,960 533,958 530,958l5,-10l0,-5l-10,0M447,909l10,0l0,-19l-10,0M83,793l9,0l0,-59l-9,0l0,34C83,771 85,773 88,773l-5,10M68,729l10,0l0,-19l-5,0M481,725l10,0l0,-49l-5,-34C477,645 472,649 472,652C472,675 475,686 481,686l-4,9l0,5M68,700l10,0l0,-102l-10,0l0,58C68,659 70,661 73,661l-5,10M477,613l9,0l0,-20l-9,0M24,603C24,561 21,540 15,540l4,-10l-4,-24l4,-10C19,493 18,488 15,481C30,328 54,216 88,146l4,0l0,14C86,171 83,181 83,190C83,193 85,194 88,194C59,343 39,480 29,603M68,588l10,0l0,-14l-10,0M462,574l0,-29l-10,0l0,19C453,571 457,574 462,574M68,525l10,0l0,-29l-5,0l-5,19C71,515 73,517 73,520C70,520 68,522 68,525M442,506l10,0l-24,-117l-10,0C421,424 429,463 442,506M491,457l-44,-185l-5,0l-9,5C420,218 413,184 413,175l0,-5l5,0l63,195l-4,9C483,382 489,408 496,452C499,452 501,454 501,457M413,272C404,243 399,224 399,214l0,-5l5,0l14,58l0,5M389,199C383,176 377,158 370,146l0,-5l4,0C391,164 399,183 399,199M107,117l0,-5C120,96 126,85 126,78l5,0l0,5C120,106 112,117 107,117z"/>
<glyph unicode="n" horiz-adv-x="1385" d="M1056,1449C1097,1426 1127,1383 1147,1320C1156,1301 1169,1253 1185,1176l-5,0C1189,1151 1194,1098 1194,1019l0,-10l5,-29l-9,-43C1190,934 1191,933 1194,933l-4,-24l0,-168C1190,704 1188,649 1185,574l-5,0C1180,571 1182,569 1185,569C1168,432 1156,363 1151,363C1151,360 1153,359 1156,359C1113,174 1085,74 1070,57l-5,10C1136,305 1171,468 1171,555l0,24l-5,0C1166,537 1153,475 1128,392l4,-9C1129,373 1126,368 1123,368l5,-9C1115,321 1107,284 1104,249l-10,0l0,9C1094,279 1115,378 1156,555C1156,558 1154,560 1151,560C1158,585 1161,612 1161,641l-10,5C1157,684 1164,703 1171,703l-5,10C1166,716 1168,717 1171,717l-5,10C1169,754 1171,777 1171,794l0,5C1171,802 1172,803 1175,803C1172,810 1171,815 1171,818C1171,924 1141,1080 1080,1286C1028,1353 983,1387 946,1387l-10,-5C930,1385 925,1387 922,1387C898,1380 885,1377 884,1377C884,1380 882,1382 879,1382C828,1344 802,1303 802,1258C787,1216 775,1165 764,1105C764,1102 766,1100 769,1100C762,1069 759,1026 759,971l0,-77C759,846 764,803 774,765l4,0C778,782 781,806 788,837l10,0l0,-115C798,705 803,679 812,646l-10,-5l-4,0C790,641 782,654 774,679l4,24l0,33C753,736 740,757 740,799l5,0C742,804 740,811 740,818l-9,-5l-5,0C719,813 709,835 697,880l5,33l0,24C702,982 710,1049 726,1138l5,0C731,1141 729,1143 726,1143C741,1242 765,1312 798,1353C857,1408 915,1435 974,1435C976,1435 997,1433 1037,1430C1037,1435 1043,1441 1056,1449M267,1416l19,0C379,1416 477,1333 578,1167C581,1161 582,1156 582,1153l-4,0C565,1164 535,1205 487,1277l-5,0l0,-10C486,1267 492,1251 501,1219C547,1160 587,1078 621,971l-5,0l5,-10l0,-9C618,952 597,1000 558,1095C552,1098 544,1114 535,1143l-5,0l0,-5C533,1132 535,1127 535,1124l-10,0C507,1187 459,1255 381,1329C347,1356 317,1370 291,1372C288,1378 286,1385 286,1392l-24,0C255,1392 252,1395 252,1401C252,1406 257,1411 267,1416M970,1411l0,-5C1007,1406 1057,1358 1118,1262l0,5C1102,1302 1091,1336 1084,1368l0,4l5,10C1056,1401 1033,1411 1022,1411M477,1396C532,1332 584,1229 635,1086C626,1086 601,1137 558,1239C519,1307 489,1353 468,1377l0,10C469,1393 472,1396 477,1396M334,1387l0,-5C337,1382 342,1380 348,1377l5,10M209,1382l10,0C224,1382 228,1377 233,1368C233,1363 228,1358 219,1353l-24,5C195,1352 190,1349 181,1349l4,-10C185,1334 180,1330 171,1325C165,1328 160,1329 157,1329C140,1306 128,1280 123,1253C113,1253 94,1200 66,1095l5,-9C64,1078 58,1041 52,976l4,-10C51,961 47,924 42,856C42,853 44,851 47,851l-5,-24l0,-258l5,-33l-5,0C51,413 67,322 90,263C90,260 107,234 142,187l5,0l0,4C90,380 61,533 61,650l0,53C66,862 76,942 90,942C96,941 99,938 99,933C89,844 83,799 80,799C80,796 82,794 85,794C82,786 78,745 75,670C75,551 102,390 157,187C173,177 189,172 205,172l9,0C227,172 254,186 295,215l5,0l0,-5C270,172 232,153 185,153l-9,0l0,-5C176,131 201,120 252,115C280,115 320,199 372,368C323,441 296,501 291,550l9,33l10,0l5,-28l-5,0C310,518 340,451 401,354l4,0C418,420 425,463 425,483l0,14C402,540 391,585 391,631C381,644 370,672 358,717C361,740 365,751 372,751C377,751 384,722 391,665C416,608 430,579 434,579l5,0l0,4C423,617 415,638 415,646l10,4C434,639 439,628 439,617l5,0l0,24l9,0C460,640 463,636 463,631l0,-33C463,595 461,593 458,593l5,-10C463,580 461,579 458,579C478,544 496,506 511,464C482,496 468,523 468,545l-15,0C513,414 599,289 711,172C722,166 735,163 750,163l0,14l9,0l58,-81l9,-5C855,91 882,105 908,134C908,131 909,129 912,129C912,114 893,95 855,72C868,72 874,70 874,67l10,5l9,-5C926,90 948,107 960,120l-5,9l0,5C994,163 1013,207 1013,268l28,158C1041,429 1040,430 1037,430l4,24l0,48C1041,505 1043,507 1046,507l-5,9l0,101l10,0l0,-19l5,-24l-5,0l5,-10l0,-48C1056,513 1054,512 1051,512l5,-10C1056,429 1048,354 1032,277C1039,277 1053,349 1075,493C1077,522 1080,536 1084,536C1084,539 1083,540 1080,540l33,206l-5,29l0,52l10,0l0,-9C1118,815 1116,813 1113,813C1116,807 1119,785 1123,746l-5,0l5,-10C1120,668 1118,620 1118,593C1118,590 1116,585 1113,579C1113,576 1115,574 1118,574C1111,517 1103,469 1094,430l0,-9l5,0C1110,469 1119,493 1128,493l4,0C1071,324 1036,214 1027,163C1001,83 950,43 874,43l-10,0C784,62 708,113 635,196C562,273 498,358 444,450l-5,0l0,-24C430,382 425,348 425,325C532,196 624,104 702,48C723,36 757,23 802,10C819,16 837,19 855,19l0,-5C853,5 840,0 817,0l-5,0C748,4 716,14 716,29l-9,-5C650,55 553,151 415,311C415,265 397,209 362,143C283,86 233,57 214,57C191,57 169,81 147,129l-33,29l0,-5C117,153 118,151 118,148l-4,0C74,195 45,276 28,392C5,455 -11,549 -20,674l5,0l-10,58l5,9C-20,744 -22,749 -25,756C-25,809 -6,879 32,966C32,1109 54,1228 99,1325C117,1343 138,1354 162,1358C169,1374 184,1382 209,1382M420,1329l0,-4C420,1321 433,1308 458,1286C446,1311 435,1325 425,1329M1123,1329l0,-9C1155,1207 1171,1131 1171,1090l9,0C1180,1123 1163,1202 1128,1329M109,1301C109,1296 106,1289 99,1282l0,-10C106,1272 111,1280 114,1296l0,5M750,1162l0,-9C756,1153 759,1156 759,1162l0,10C753,1171 750,1167 750,1162M735,1090C722,1000 716,954 716,952C719,901 726,858 735,823l5,0l0,33C740,911 743,969 750,1028l-5,19C748,1060 750,1073 750,1086C747,1086 742,1087 735,1090M807,1081l5,0l0,-24l-5,0M645,1047l9,0l29,-95l-10,0M793,909l9,0l0,-53l-4,0C791,856 788,859 788,866l0,19M1104,894l9,0l0,-33l-9,0M23,875C7,818 -1,763 -1,708l0,-43l5,-29C1,630 -1,625 -1,622C5,589 8,563 8,545l5,0l0,10C10,622 7,668 4,693l4,10l-4,10l4,9l-4,10C4,747 12,785 28,846l0,29M1171,626l-5,-23l9,-5l0,28M420,555l0,-5C426,539 429,531 429,526l5,0l0,5C428,541 425,549 425,555M13,540l0,-19l5,0l0,19M448,497l0,-14C479,425 522,356 578,277l9,0C587,300 547,367 468,478C468,491 461,497 448,497M377,359C348,248 328,184 315,167l0,-9C372,233 401,292 401,335M726,148C726,137 745,121 783,100l0,5C772,134 753,148 726,148M133,120C142,108 153,89 166,62l0,-5C153,64 138,84 123,115z"/>
<glyph unicode="s" horiz-adv-x="1086" d="M562,1441l26,0C588,1435 585,1432 580,1432l-18,0M597,1441l30,0C658,1441 696,1427 740,1398C847,1361 900,1299 900,1212C897,1212 896,1210 896,1207C905,1207 910,1187 913,1147l0,-87C913,1021 870,962 783,883C780,883 776,881 770,878l5,-8C775,865 755,859 714,852C696,841 671,835 640,835l0,-4C764,739 826,674 826,636l35,-56C876,549 883,523 883,502l-5,-9l5,-17C883,401 834,303 736,182C713,163 687,129 658,78l-9,-4l-4,0l0,4l30,47l0,5l-4,0C671,121 638,99 571,65C571,68 570,69 567,69C567,64 561,59 549,52l-8,4C476,19 424,0 385,0C337,0 301,9 277,26C245,32 216,39 190,48C170,42 154,39 143,39C68,39 6,92 -43,199l-22,78C-65,323 -40,386 9,467C50,502 86,519 117,519C120,519 121,518 121,515l22,4l26,0l13,-8l39,0C187,548 158,589 134,636C53,730 13,824 13,917C13,937 14,954 17,969C14,984 13,999 13,1013C13,1094 52,1176 130,1259l95,69C222,1334 221,1338 221,1341C294,1399 368,1428 441,1428C492,1428 531,1421 558,1406l9,5C570,1411 571,1409 571,1406C574,1406 575,1408 575,1411l22,-5C600,1406 605,1408 610,1411l17,-5C630,1406 638,1408 653,1411C668,1408 683,1406 697,1406C690,1417 656,1427 597,1437M260,1341l8,0C276,1341 312,1354 376,1380C393,1380 430,1384 489,1393l0,9C478,1402 472,1403 472,1406C469,1406 467,1405 467,1402l-21,4C376,1406 314,1384 260,1341M489,1380l-4,-8l-22,4C426,1366 385,1352 342,1333l-5,8C340,1346 342,1352 342,1359C327,1350 317,1346 311,1346l0,-5l9,-13C271,1328 220,1299 169,1242l4,-9l0,-4C115,1168 86,1074 86,948C86,905 103,853 138,792C151,767 183,748 234,736l0,-5C234,726 231,723 225,723l-4,0C216,723 212,727 208,736l-9,-5l-17,9C224,679 257,649 281,649C294,649 336,662 407,688l4,-9l-35,-17C376,665 375,666 372,666C372,659 346,651 294,640C294,636 308,630 337,623l5,-9l-9,-4C287,627 252,636 229,636l-4,-9C274,585 329,553 389,532C400,532 407,526 411,515l82,-30C516,476 530,472 536,472l9,0C548,472 564,475 593,480C598,479 601,477 601,472l-26,-9l0,-4C592,457 601,453 601,446l-8,-5C581,441 566,445 549,454C526,449 502,446 476,446l-13,0C432,446 402,450 372,459C367,456 361,454 355,454C355,457 335,466 294,480l-60,44l0,-5C292,470 347,441 398,433l0,-5l-26,0C351,428 303,450 229,493l-4,0C222,493 217,492 212,489C209,489 208,490 208,493l-22,-4l-4,0C179,489 177,490 177,493l-8,-4l-26,0l0,-9l43,0C192,479 195,477 195,472l-52,-18l-22,-4l4,-9l0,-8C114,420 108,409 108,402C108,363 121,342 147,338l0,-5C144,318 143,309 143,307C201,194 261,138 324,138C324,135 327,134 333,134C348,134 386,143 446,160l8,0l0,-4C454,141 419,130 350,121l-13,0C271,121 209,164 151,251l0,-4C204,158 252,113 294,113C294,105 320,98 372,91C413,95 458,111 506,138C558,177 596,211 619,238C634,249 642,255 645,255l0,-4C555,153 497,104 472,104C472,100 465,93 450,82l-9,5C441,83 430,76 407,65l-5,0l-8,4C394,64 391,61 385,61C380,64 374,65 368,65l-5,-9l0,-4C369,52 372,51 372,48l9,4l30,0C527,87 624,154 701,255C741,290 771,342 792,411l-5,22C790,476 793,498 796,498C784,601 765,653 740,653l0,-4C766,580 779,524 779,480l0,-65C779,410 776,407 770,407l-4,0l0,4C766,525 752,593 723,614C689,673 633,728 554,779C551,779 540,778 519,775l-8,17C518,798 523,801 528,801l0,4C517,818 511,828 511,835l8,5l9,0C547,814 567,801 588,801l13,0l0,8C578,818 559,831 545,848C546,854 549,857 554,857l8,0l87,-69l9,-5l0,13C632,805 619,813 619,818l0,9l4,8C598,835 568,855 532,896C507,896 475,918 437,961C437,966 436,969 433,969l-44,-13C384,956 381,959 381,965l0,9C381,977 391,983 411,991l26,0C492,991 576,958 688,891C790,940 853,999 878,1069l-4,9l17,69C886,1167 881,1202 874,1251l-4,0l0,-44C870,1201 871,1195 874,1190C871,1175 868,1168 865,1168l5,-8l-5,-22l-8,0l0,52C857,1197 858,1202 861,1207C855,1222 852,1234 852,1242l5,0C843,1285 833,1307 826,1307l0,-4C841,1276 848,1244 848,1207C848,1151 831,1086 796,1013C791,1013 786,1019 779,1030C784,1057 787,1079 787,1095C787,1166 773,1224 744,1268C739,1267 736,1264 736,1259C745,1259 749,1256 749,1251l-5,-9C753,1239 757,1231 757,1216l0,-4l-8,0C749,1245 708,1291 627,1350C600,1370 554,1380 489,1380M645,1380l0,-4C676,1376 718,1339 770,1264C785,1241 796,1201 805,1142l-5,-21l0,-43l-4,-22l9,0C822,1117 831,1161 831,1190l0,17l-5,22l5,0C814,1298 794,1333 770,1333C770,1340 764,1345 753,1350C753,1344 750,1341 744,1341C709,1364 677,1377 649,1380M437,1346l4,-9C395,1325 346,1289 294,1229C282,1229 253,1190 208,1112C182,1062 169,1013 169,965C169,914 188,871 225,835l0,-4l-4,0C192,854 177,871 177,883l-4,0l0,-5C208,806 255,756 316,727l4,0C335,727 356,728 385,731C385,726 376,721 359,714l-9,4l-13,0l0,-4C340,709 342,704 342,701C327,710 313,714 298,714C298,711 297,710 294,710C294,715 291,718 286,718l-5,0l-21,-4C260,720 254,723 242,723l0,8C268,728 284,725 290,723l4,8l-8,5C286,733 284,731 281,731C281,740 278,744 273,744C273,741 271,740 268,740C179,810 134,897 134,1000l0,30C134,1100 169,1163 238,1220l9,0l0,-4C183,1151 151,1093 151,1043C151,1029 150,1015 147,1000C150,984 151,968 151,952l9,0l-4,22l0,21C161,1069 207,1154 294,1251C351,1306 384,1333 394,1333C409,1342 423,1346 437,1346M30,1043l0,-4l5,0C73,1132 119,1206 173,1259C192,1282 207,1294 216,1294l0,9C137,1263 78,1192 39,1090C33,1060 30,1044 30,1043M108,1164l-39,-78l4,-8C48,1035 35,1000 35,974l8,-5C40,955 38,948 35,948C40,925 55,889 78,840l4,0l0,12C76,862 73,871 73,878C73,881 75,886 78,891C69,908 65,924 65,939l13,22l0,17C78,1056 89,1117 112,1160l0,4M900,1073C900,1039 848,976 744,883l5,0C828,934 879,993 904,1060l0,13M463,969l0,-8C487,932 509,917 528,917C533,917 536,923 536,935l13,0l22,-26l48,0l0,4C552,950 501,969 467,969M593,891l0,-4C596,887 600,886 606,883l26,4C637,886 640,883 640,878C645,881 653,883 666,883l0,4C656,887 647,891 640,900C615,894 600,891 593,891M35,891l0,-4l13,-35l4,0l0,5C43,876 39,888 39,891M593,865l0,-4l30,-4l13,0l0,4C624,861 612,862 601,865M43,840l0,-18C49,822 52,825 52,831C52,837 49,840 43,840M69,814l-4,-22C73,764 90,737 117,710l4,0C121,721 124,729 130,736C99,788 81,814 78,814M588,783l0,-4l96,-87C685,698 687,701 692,701C664,756 629,783 588,783M692,736l0,-9C695,727 706,714 723,688l13,-9l4,0l0,5C719,713 703,731 692,736M164,731l0,-8l52,-74l26,0C242,654 223,671 186,701C189,701 190,702 190,705C176,714 169,722 169,731M156,701l0,-4C159,674 163,662 169,662l13,0C167,679 160,692 160,701M783,684l0,-9C794,655 802,645 805,645l0,4C800,665 793,677 783,684M710,662C714,651 718,645 723,645l0,4C720,654 718,659 718,662M381,623C402,601 427,574 454,541l-4,0C431,546 404,569 368,610l-9,-4C355,606 351,610 346,619C353,619 365,620 381,623M190,614l0,-4l52,-34l5,0C233,590 214,603 190,614M813,606l5,-26l4,0l0,21M216,571C294,496 375,459 459,459l8,0l44,4l0,4C442,473 364,499 277,545M839,558l0,-4C839,551 841,550 844,550C832,486 825,421 822,355C817,340 813,333 809,333l0,30l4,31l-8,0C805,373 780,310 731,203l9,0C808,294 848,376 861,450l0,4C861,457 860,459 857,459l4,21C861,491 857,517 848,558M805,541l0,-9C805,516 806,506 809,502C806,464 803,442 800,437l0,-4l5,0C805,437 809,451 818,476C815,491 813,504 813,515l0,17C813,538 810,541 805,541M9,441l0,-4C42,468 64,484 73,485C86,490 99,493 112,493l0,5l-21,0C47,481 20,462 9,441M69,450l0,-4l9,0C78,453 91,460 117,467l0,5l-13,0M-4,389l4,0C29,414 43,431 43,441C22,426 6,408 -4,389M39,368l0,-9l4,0C43,378 52,398 69,420l-4,0C54,420 45,403 39,368M86,420C66,381 56,358 56,351l0,-44C56,301 60,282 69,251l4,0C73,255 76,271 82,299l9,0l0,-31C91,262 89,256 86,251C89,246 91,240 91,234l-5,0C111,173 151,143 208,143l0,-9C196,134 190,131 190,125C193,125 195,124 195,121C192,121 187,120 182,117C135,137 109,150 104,156C69,212 48,254 39,281l-4,0C35,276 32,268 26,255C26,226 55,183 112,125C161,92 186,72 186,65C211,72 234,80 255,91l0,4C213,104 191,108 190,108l0,5C191,118 194,121 199,121C225,116 239,113 242,113C155,186 112,258 112,329C98,348 91,378 91,420M-26,316C-26,232 23,156 121,87C142,78 153,74 156,74C120,93 95,110 82,125C45,170 21,206 9,234C9,244 7,257 4,273C11,290 20,299 30,299C30,302 27,313 22,333C22,336 23,338 26,338l-4,8l0,9l4,30l-4,0C-10,363 -26,340 -26,316M506,61l0,-5l5,0C565,77 640,142 736,251C736,258 742,269 753,286l0,4C646,158 564,82 506,61M597,95l4,0C674,140 710,170 710,186l0,4l-5,0C677,160 641,128 597,95M-13,182l0,-5C-13,150 20,114 86,69l26,-8l9,0l0,4C75,77 30,116 -13,182M311,82l-4,-8l0,-5l22,-4C358,71 376,74 381,74l0,4C376,78 353,79 311,82M268,65l0,-9l22,0l0,9M485,52l0,-4l4,0C494,51 499,52 502,52l0,4l-4,0C492,53 488,52 485,52M286,43l0,-4l47,0l9,-4l0,8C332,43 325,45 320,48C315,45 310,43 303,43C300,43 298,45 298,48C293,45 289,43 286,43M324,26C324,19 340,15 372,13C408,19 428,22 433,22l0,4C421,26 415,29 415,35C384,29 354,26 324,26z"/>
</font>

	<g id="Letter_R">
	<path class="st2" d="M31.3,38.1c1.1,0,5.4-5.2,7.1-8.8C40.6,23,37,16.7,35,14.5c-7.7-5.1-11.4-3.4-14.9-2.6
		c-1.7-0.2-2.1,0.2-7.2,2.4c-4.5,3.8-7,14.5-7.2,23C2.4,56,11.3,59.5,11.3,59.5l0,0c0,0,1.3-0.2,3-1.1c1.1-1.2,3.9-8.6,3.9-8.6
		s2.9,4.1,5.2,7.6c1.8,3.1,6.1,3.2,7.5,2.9c6.1,0.9,6.6-3.8,7.5-7.1C39.7,44.5,34.1,39.5,31.3,38.1z M26.1,29.2
		c-2,2.1-2.5,3.2-5.9,1.3c0,0-3.1-3.2-1.1-5.2c1.8-2.3,6.2-4.5,7.4-2.7S28,27.2,26.1,29.2z"/>
</g>
<g id="Letter_I">
	<path class="st2" d="M50.8,58.1c0,0-5.4-12.9-2.8-18.7c0.4-5.5,0.4-15.1,1.4-16.4c0.9-4.7,3.6-12.4,8.2-11.5
		c2.9,0.9,5.2,5.7,6.1,12.9c1.3,5.3,2.4,12.7,1.1,19.2c-0.2,2.6-2.1,11.8-4.3,12.9c-2.2,1.8-4.4,4.3-5.9,4.2
		C52.9,59.7,50.8,58.1,50.8,58.1z"/>
</g>
<g id="Letter_S">
	<path class="st2" d="M80.3,43.5c0,0-9.2-11.8-7-17.7c0-2.8,1.6-8.5,7-11.1c1.8-1.9,6.7-4.2,10.9-2.8c3.8,0.3,11.7,0.9,12.8,8.1
		c0.2,2.3,0.9,4.4-1.1,6.6c-2.6,2.6-7.6,4.8-8.4,4.9c1.3,1.9,6.7,5.6,8,9.5c0.5,3.2,1.2,11.2-9.8,17.2c-2.8,1.7-6.3,4.7-12.4,1.1
		c-1.9-0.2-2.5-0.1-2.5-0.1s-5.3,1.9-6.9-7.4c0.1-3.2,0.4-9,7.4-8.6C79.6,43.4,80.3,43.5,80.3,43.5z"/>
</g>
<g id="Letter_E">
	<path class="st2" d="M122.3,13.2c0,0,5.1-5.1,15.3,0.1c3.5,1.6,6.5,2.2,5.2,7c-0.9,3.1-4,8.9-6.8,8.8c-1.6-0.8-2.1-0.8-2.1-0.8
		l-6.9,1.4l0.1,0.8c0,0,7.2,0.7,7.1,3.9s0.1,5.3-4,8.9c-1.2,1.9-1.4,2.4-1.4,2.4s8.6-1.8,10.8,3.4c0.2,3.2,0.3,10.1-8.6,10.5
		c-5.8,1.1-12.1,0.6-13.8-0.4c-2.6-1-8.5-4.9-5.8-14.5c0.4-8.3,1.5-15.8,1.5-15.8s-1.9-5.9,3.2-10.7
		C118.9,14.9,122.3,13.2,122.3,13.2z"/>
</g>
<g id="Letter_A">
	<path class="st2" d="M208.4,39.1c-1.4-8.1-7.8-20.1-10.3-22.6c-7.8-8.4-11.7-3.3-16.2,1.6c-6.5,4.5-10.9,14.7-14.2,22.5
		c-3.4,10.6-1.9,11.8-1.9,11.8s0.6,1.4,1.7,4.4c2.4,3.4,6,2.4,8.7,0.8c5.4-0.8,8.9-10.6,8.9-10.6l4.8-0.9c0,0,4.4,8,7.6,12.4
		c3.2,3.9,4.7,1.9,7.4,0.5c2.7-0.2,5-4.4,5.2-8C210.1,47.3,209.2,43.8,208.4,39.1z M193.6,33.9c-1.9,1.9-5.3,4.4-5.8,3.9
		c-1.8,0.2-4.1-1.7-4.1-3.8c-0.3-1.9-0.6-2.5-0.6-2.5s-2.4-5.1,3.7-5.8C189.2,25,195.4,26.9,193.6,33.9z"/>
</g>
<g id="Letter_N">
	<path class="st2" d="M223.1,56.2c0,0-6.4-10.5-6-19.4c0.5-5.7,2.2-11.3,2.2-11.3s0.8-10.6,4.5-12.1c1.4-1,3.8-3.1,8.2,0.1
		c3.6,3.6,9.9,11.4,10.6,15.1c1.1-9.1,1.9-16.5,6.4-16.9c3.6-0.8,8.5-1.2,9.2,3.6c0.8,4.9,1.9,16.5,0.8,22.5
		c-0.8,3.9-1.4,13.6-6,18.2c-2.1,2.8-6.4,6.2-10.2,4.2c-3.2-2.7-10.5-10.2-10.5-10.2s-3.1,8.2-5.9,8.1
		C224.6,57.6,223.1,56.2,223.1,56.2z"/>
</g>
<g id="Letter_D">
	<path class="st2" d="M297.2,28.1c-0.4-6.1-8.6-12.8-11.4-14.2c-5.9-3-9.3-2.4-11.9-1.4c-4,1.8-5.8,14.6-6,17.5
		c-0.1,2.8-0.9,3.2-1.4,7c-0.6,3.6,3,17.9,3,17.9c0.2,1.9,3.4,4.7,5.2,5.1c1.9,0.2,5.6-1.1,5.6-1.1s0.7-0.5,3.3-0.4
		c5.3-0.4,11.2-12.1,12.6-14.5C297.3,41,297.9,32.8,297.2,28.1z M286.1,38.9c-2.1,2.1-4,4.7-7.2,0.4c0,0-1.8-7.4,1.8-8.9
		c1-0.8,1.8-2.1,3.2-0.8S287.8,34.4,286.1,38.9z"/>
</g>
<g id="Letter_S_1_">
	<path class="st2" d="M330.3,43.4c0,0-9.2-11.8-7-17.7c0-2.8,1.6-8.5,7-11.1c1.8-1.9,6.7-4.2,10.9-2.8c3.8,0.3,11.7,0.9,12.8,8.1
		c0.2,2.3,0.9,4.4-1.1,6.6c-2.6,2.6-7.6,4.8-8.4,4.9c1.3,1.9,6.7,5.6,8,9.5c0.5,3.2,1.2,11.2-9.8,17.2c-2.8,1.7-6.3,4.7-12.4,1.1
		c-1.9-0.2-2.5-0.1-2.5-0.1s-5.3,1.9-6.9-7.4c0.1-3.2,0.4-9,7.4-8.6C329.6,43.3,330.3,43.4,330.3,43.4z"/>
</g>
<g id="Letter_H">
	<path class="st2" d="M363.2,54.4c0,0-5-14.2-1.2-25.2c2.4-9.5,5-17.8,10-17.4c1.2-0.3,3.9,1.2,4.5,2.8s1.9,11.5,1,15
		c-0.2,1.4-0.5,1.2-0.2,1.4s5.8-0.3,6.4-1.3c0.3-1.6,0-10.9,2.2-14c2-3.1,4.5-5.3,6.8-4.2c2.6,1,5.4,3.3,5.9,6.8
		c0.5,3.5,1.9,22.4,0.3,27.2c-1.6,4.8-4.8,12-4.8,12s-3.2,2.1-5.7,0.2c-1.1-0.7-1.7-0.7-1.7-0.7s-3.5-4.4-3.5-8.2
		c0-4,0.2-8.5,0.2-8.5s-4.7,1.3-5.6,0.7c-0.3,3.7-2.7,11.6-3.8,13.6C372.9,56.4,365.7,62,363.2,54.4z"/>
</g>
<g id="Letter_I_1_">
	<path class="st2" d="M410.4,58.2c0,0-5.4-12.9-2.8-18.7C408,34,408,24.4,409,23.1c0.9-4.7,3.6-12.4,8.2-11.5
		c2.9,0.9,5.2,5.7,6.1,12.9c1.3,5.3,2.4,12.7,1.1,19.2c-0.2,2.6-2.1,11.8-4.3,12.9c-2.2,1.8-4.4,4.3-5.9,4.2
		C412.5,59.8,410.4,58.2,410.4,58.2z"/>
</g>
<g id="Letter_N_1_">
	<path class="st2" d="M437.4,55.8c0,0-6.4-10.5-6-19.4c0.5-5.7,2.2-11.3,2.2-11.3s0.8-10.6,4.5-12.1c1.4-1,3.8-3.1,8.2,0.1
		c3.6,3.6,9.9,11.4,10.6,15.1c1.1-9.1,1.9-16.5,6.4-16.9c3.6-0.8,8.5-1.2,9.2,3.6c0.8,4.9,1.9,16.5,0.8,22.5
		c-0.8,3.9-1.4,13.6-6,18.2c-2.1,2.8-6.4,6.2-10.2,4.2c-3.2-2.7-10.5-10.2-10.5-10.2s-3.1,8.2-5.9,8.1
		C439,57.1,437.4,55.8,437.4,55.8z"/>
</g>
<g id="Letter_e">
	<path class="st2" d="M492.6,13.4c0,0,5.1-5.1,15.3,0.1c3.5,1.6,6.5,2.2,5.2,7c-0.9,3.1-4,8.9-6.8,8.8c-1.6-0.8-2.1-0.8-2.1-0.8
		l-6.9,1.4l0.1,0.8c0,0,7.2,0.7,7.1,3.9s0.1,5.3-4,8.9c-1.2,1.9-1.4,2.4-1.4,2.4s8.6-1.8,10.8,3.4c0.2,3.2,0.3,10.1-8.6,10.5
		c-5.8,1.1-12.1,0.6-13.8-0.4c-2.6-1-8.5-4.9-5.8-14.5c0.4-8.3,1.5-15.8,1.5-15.8s-1.9-5.9,3.2-10.7
		C489.3,15.1,492.6,13.4,492.6,13.4z"/>
</g>
<g id="Layer_2">
	<text transform="matrix(1 0 0 1 5.4932 61.1084)" class="st1 st0 st3">Rise and Shine</text>
</g>
</svg>
