<?xml version="1.0" encoding="UTF-8"?>
<svg width="20px" height="21px" viewBox="0 0 20 21" version="1.1" xmlns="http://www.w3.org/2000/svg" xmlns:xlink="http://www.w3.org/1999/xlink">
    <!-- Generator: Sketch 52.2 (67145) - http://www.bohemiancoding.com/sketch -->
    <title>Shape</title>
    <desc>Created with Sketch.</desc>
    <defs>
        <path d="M19.6342283,17.8669535 L14.6824749,12.9081999 C15.6637453,11.5659783 16.2497034,9.91590719 16.2497034,8.12525172 C16.2497034,3.63751269 12.6127907,0 8.12525172,0 C3.63771269,0 0,3.63771269 0,8.12525172 C0,12.6127907 3.63771269,16.2505034 8.12445169,16.2505034 C9.91904729,16.2505034 11.5713585,15.6622052 12.9160001,14.6770147 L17.8661535,19.6349683 C18.3544486,20.1232634 19.1458731,20.1232634 19.6333882,19.6349683 C20.1216834,19.1458931 20.1224634,18.3552486 19.6341697,17.8669535 L19.6342283,17.8669535 Z M2.50009745,8.12525172 C2.50009745,5.01815546 5.01817546,2.50007745 8.12447169,2.50007745 C11.2315679,2.50007745 13.749646,5.01815546 13.749646,8.12525172 C13.749646,11.232348 11.2315679,13.750426 8.12447169,13.750426 C5.01817546,13.750426 2.50009745,11.232348 2.50009745,8.12525172 Z" id="path-1"></path>
    </defs>
    <g id="Aptamil-Desktop-Design" stroke="none" stroke-width="1" fill="none" fill-rule="evenodd">
        <g id="D.-Home" transform="translate(-1346.000000, -39.000000)">
            <g id="Hero" transform="translate(-21.000000, -48.000000)">
                <g id="Nav-icons" transform="translate(1270.000000, 83.000000)">
                    <g id="Icon/search-noun" transform="translate(97.000000, 4.554215)">
                        <mask id="mask-2" fill="white">
                            <use xlink:href="#path-1"></use>
                        </mask>
                        <use id="Shape" fill="#17479E" fill-rule="nonzero" xlink:href="#path-1"></use>
                    </g>
                </g>
            </g>
        </g>
    </g>
</svg>