<?xml version="1.0" encoding="UTF-8"?>
<svg width="37px" height="27px" viewBox="0 0 37 27" version="1.1" xmlns="http://www.w3.org/2000/svg" xmlns:xlink="http://www.w3.org/1999/xlink">
    <!-- Generator: Sketch 52.2 (67145) - http://www.bohemiancoding.com/sketch -->
    <title>002-youtube</title>
    <desc>Created with Sketch.</desc>
    <g id="Symbols" stroke="none" stroke-width="1" fill="none" fill-rule="evenodd">
        <g id="Footer-desktop" transform="translate(-666.000000, -165.000000)" fill="#FFFFFF" fill-rule="nonzero">
            <g id="Social-icons" transform="translate(666.000000, 162.000000)">
                <g id="002-youtube" transform="translate(0.419890, 3.187500)">
                    <path d="M35.0829925,2.28759702 C33.7652473,0.662777736 31.3323058,0 26.6859293,0 L9.81961556,0 C5.0669009,0 2.5927431,0.705529709 1.27994389,2.4353967 C0,4.12202313 0,6.60713426 0,10.0465916 L0,16.6021792 C0,23.2655018 1.51864536,26.6486486 9.81961556,26.6486486 L26.6860471,26.6486486 C30.7153561,26.6486486 32.948104,26.0638017 34.3925599,24.6299005 C35.8738751,23.1594769 36.5058982,20.7586482 36.5058982,16.6021792 L36.5058982,10.0465916 C36.5058982,6.41939203 36.4068612,3.91962307 35.0829925,2.28759702 Z M23.4369044,14.2294447 L15.7779669,18.3813942 C15.6067425,18.474227 15.4195026,18.520277 15.2324982,18.520277 C15.020764,18.520277 14.8095008,18.4611572 14.6223786,18.3436503 C14.2700378,18.1221951 14.0548886,17.7260675 14.0548886,17.2987921 L14.0548886,9.02152143 C14.0548886,8.59497888 14.269449,8.19921775 14.6210833,7.97764038 C14.9728353,7.75606301 15.4103172,7.7409166 15.7752584,7.93757568 L23.4341959,12.0627747 C23.8238669,12.2726258 24.0685742,12.689885 24.069163,13.1451325 C24.069634,13.6007464 23.8259866,14.0186164 23.4369044,14.2294447 Z" id="XMLID_823_"></path>
                </g>
            </g>
        </g>
    </g>
</svg>