<?xml version="1.0" encoding="UTF-8"?>
<svg width="1440px" height="83px" viewBox="0 0 1440 83" version="1.1" xmlns="http://www.w3.org/2000/svg" xmlns:xlink="http://www.w3.org/1999/xlink">
    <!-- Generator: Sketch 52.2 (67145) - http://www.bohemiancoding.com/sketch -->
    <title>Background Copy</title>
    <desc>Created with Sketch.</desc>
    <g id="Page-1" stroke="none" stroke-width="1" fill="none" fill-rule="evenodd">
        <path d="M0,82.2421875 C266.666667,27.4140625 506.666667,9.67906311e-14 720,0 C933.333333,-8.28388284e-14 1173.33333,27.4140625 1440,82.2421875 L0,82.2421875 Z" id="Background-Copy" fill="#C4E4F9"></path>
    </g>
</svg>