<?xml version="1.0" encoding="UTF-8"?>
<svg width="34px" height="34px" viewBox="0 0 34 34" version="1.1" xmlns="http://www.w3.org/2000/svg" xmlns:xlink="http://www.w3.org/1999/xlink">
    <!-- Generator: Sketch 52.2 (67145) - http://www.bohemiancoding.com/sketch -->
    <title>001-instagram</title>
    <desc>Created with Sketch.</desc>
    <g id="Symbols" stroke="none" stroke-width="1" fill="none" fill-rule="evenodd">
        <g id="Footer-desktop" transform="translate(-739.000000, -162.000000)" fill="#FFFFFF" fill-rule="nonzero">
            <g id="Social-icons" transform="translate(666.000000, 162.000000)">
                <g id="001-instagram" transform="translate(73.232044, 0.000000)">
                    <path d="M23.2154696,0 L10.5524862,0 C4.72540331,0 0,4.757875 0,10.625 L0,23.375 C0,29.242125 4.72540331,34 10.5524862,34 L23.2154696,34 C29.0425525,34 33.7679558,29.242125 33.7679558,23.375 L33.7679558,10.625 C33.7679558,4.757875 29.0425525,0 23.2154696,0 Z M30.6022099,23.375 C30.6022099,27.47625 27.2887293,30.8125 23.2154696,30.8125 L10.5524862,30.8125 C6.47922652,30.8125 3.16574586,27.47625 3.16574586,23.375 L3.16574586,10.625 C3.16574586,6.52375 6.47922652,3.1875 10.5524862,3.1875 L23.2154696,3.1875 C27.2887293,3.1875 30.6022099,6.52375 30.6022099,10.625 L30.6022099,23.375 Z" id="Shape"></path>
                    <path d="M16.8839779,8.5 C12.2218895,8.5 8.44198895,12.305875 8.44198895,17 C8.44198895,21.694125 12.2218895,25.5 16.8839779,25.5 C21.5460663,25.5 25.3259669,21.694125 25.3259669,17 C25.3259669,12.305875 21.5460663,8.5 16.8839779,8.5 Z M16.8839779,22.3125 C13.9757127,22.3125 11.6077348,19.92825 11.6077348,17 C11.6077348,14.069625 13.9757127,11.6875 16.8839779,11.6875 C19.7922431,11.6875 22.160221,14.069625 22.160221,17 C22.160221,19.92825 19.7922431,22.3125 16.8839779,22.3125 Z" id="Shape"></path>
                    <ellipse id="Oval" cx="26.732965" cy="7.08333333" rx="1.40699816" ry="1.41666667"></ellipse>
                </g>
            </g>
        </g>
    </g>
</svg>