<?xml version="1.0" encoding="UTF-8"?>
<svg width="28px" height="22px" viewBox="0 0 28 22" version="1.1" xmlns="http://www.w3.org/2000/svg" xmlns:xlink="http://www.w3.org/1999/xlink">
    <!-- Generator: Sketch 52.2 (67145) - http://www.bohemiancoding.com/sketch -->
    <title>Icon</title>
    <desc>Created with Sketch.</desc>
    <defs>
        <path d="M26.6666667,5.33333333 L5.33333333,5.33333333 C3.86666667,5.33333333 2.68,6.53333333 2.68,8 L2.66666667,24 C2.66666667,25.4666667 3.86666667,26.6666667 5.33333333,26.6666667 L26.6666667,26.6666667 C28.1333333,26.6666667 29.3333333,25.4666667 29.3333333,24 L29.3333333,8 C29.3333333,6.53333333 28.1333333,5.33333333 26.6666667,5.33333333 Z M26.6666667,24 L5.33333333,24 L5.33333333,10.6666667 L16,17.3333333 L26.6666667,10.6666667 L26.6666667,24 Z M16,14.6666667 L5.33333333,8 L26.6666667,8 L16,14.6666667 Z" id="path-1"></path>
    </defs>
    <g id="Symbols" stroke="none" stroke-width="1" fill="none" fill-rule="evenodd">
        <g id="Careline" transform="translate(-555.000000, -117.000000)">
            <g id="Image+Icons">
                <g transform="translate(322.000000, 0.000000)">
                    <g>
                        <g id="Icons" transform="translate(183.000000, 0.000000)">
                            <g id="Icon" transform="translate(48.000000, 112.000000)">
                                <g id="Icon/Mail">
                                    <mask id="mask-2" fill="white">
                                        <use xlink:href="#path-1"></use>
                                    </mask>
                                    <use id="Shape" fill="#000000" fill-rule="nonzero" xlink:href="#path-1"></use>
                                    <g id="Color/white" mask="url(#mask-2)" fill="#FFFFFF" fill-rule="evenodd">
                                        <g transform="translate(-37.333333, -37.333333)" id="Rectangle">
                                            <rect x="0" y="0" width="107" height="107"></rect>
                                        </g>
                                    </g>
                                </g>
                            </g>
                        </g>
                    </g>
                </g>
            </g>
        </g>
    </g>
</svg>